<?xml version="1.0" encoding="UTF-8" standalone="no"?>
<!-- Created with Inkscape (http://www.inkscape.org/) -->

<svg
   xmlns:dc="http://purl.org/dc/elements/1.1/"
   xmlns:cc="http://creativecommons.org/ns#"
   xmlns:rdf="http://www.w3.org/1999/02/22-rdf-syntax-ns#"
   xmlns:svg="http://www.w3.org/2000/svg"
   xmlns="http://www.w3.org/2000/svg"
   xmlns:sodipodi="http://sodipodi.sourceforge.net/DTD/sodipodi-0.dtd"
   xmlns:inkscape="http://www.inkscape.org/namespaces/inkscape"
   width="2104.7244"
   height="1488.189"
   id="svg2"
   version="1.1"
   inkscape:version="0.48.5 r10040"
   sodipodi:docname="A2PIDBox.svg">
  <defs
     id="defs4" />
  <sodipodi:namedview
     id="base"
     pagecolor="#ffffff"
     bordercolor="#666666"
     borderopacity="1.0"
     inkscape:pageopacity="0.0"
     inkscape:pageshadow="2"
     inkscape:zoom="0.41207718"
     inkscape:cx="1071.9218"
     inkscape:cy="481.74834"
     inkscape:document-units="mm"
     inkscape:current-layer="layer1"
     showgrid="false"
     units="mm"
     inkscape:window-width="1920"
     inkscape:window-height="1058"
     inkscape:window-x="1280"
     inkscape:window-y="0"
     inkscape:window-maximized="1" />
  <metadata
     id="metadata7">
    <rdf:RDF>
      <cc:Work
         rdf:about="">
        <dc:format>image/svg+xml</dc:format>
        <dc:type
           rdf:resource="http://purl.org/dc/dcmitype/StillImage" />
        <dc:title></dc:title>
      </cc:Work>
    </rdf:RDF>
  </metadata>
  <g
     inkscape:label="Layer 1"
     inkscape:groupmode="layer"
     id="layer1"
     transform="translate(0,435.82692)">
    <g
       id="g3078"
       transform="matrix(3.5433071,0,0,-3.5433071,1048.5749,898.11263)">
      <path
         style="fill:none;stroke:#000000;stroke-width:0.34999999;stroke-miterlimit:4;stroke-dasharray:none"
         d="m -35,35 23.5,0 0,-3 23,0 0,3 23.5,0 0,-23.5 -3,0 0,-23 3,0 0,-23.5 -23.5,0 0,3 -23,0 0,-3 -23.5,0 0,23.5 3,0 0,23 -3,0 0,23.5"
         id="Sketch"
         inkscape:connector-curvature="0" />
      <circle
         id="circle3081"
         style="fill:none;stroke:#000000;stroke-width:0.34999999;stroke-miterlimit:4;stroke-dasharray:none"
         r="5.9000001"
         cy="-20"
         cx="-17.5"
         sodipodi:cx="-17.5"
         sodipodi:cy="-20"
         sodipodi:rx="5.9000001"
         sodipodi:ry="5.9000001"
         d="m -11.6,-20 c 0,3.25848 -2.64152,5.9 -5.9,5.9 -3.25848,0 -5.9,-2.64152 -5.9,-5.9 0,-3.25848 2.64152,-5.9 5.9,-5.9 3.25848,0 5.9,2.64152 5.9,5.9 z" />
      <circle
         id="circle3083"
         style="fill:none;stroke:#000000;stroke-width:0.34999999;stroke-miterlimit:4;stroke-dasharray:none"
         r="4"
         cy="1.110223e-15"
         cx="-17.5"
         sodipodi:cx="-17.5"
         sodipodi:cy="1.110223e-15"
         sodipodi:rx="4"
         sodipodi:ry="4"
         d="m -13.5,0 c 0,2.209139 -1.790861,4 -4,4 -2.209139,0 -4,-1.790861 -4,-4 0,-2.209139 1.790861,-4 4,-4 2.209139,0 4,1.790861 4,4 z" />
      <circle
         id="circle3085"
         style="fill:none;stroke:#000000;stroke-width:0.34999999;stroke-miterlimit:4;stroke-dasharray:none"
         r="4"
         cy="20"
         cx="-17.5"
         sodipodi:cx="-17.5"
         sodipodi:cy="20"
         sodipodi:rx="4"
         sodipodi:ry="4"
         d="m -13.5,20 c 0,2.209139 -1.790861,4 -4,4 -2.209139,0 -4,-1.790861 -4,-4 0,-2.209139 1.790861,-4 4,-4 2.209139,0 4,1.790861 4,4 z" />
      <circle
         id="circle3087"
         style="fill:none;stroke:#000000;stroke-width:0.34999999;stroke-miterlimit:4;stroke-dasharray:none"
         r="7.9000001"
         cy="15"
         cx="17.5"
         sodipodi:cx="17.5"
         sodipodi:cy="15"
         sodipodi:rx="7.9000001"
         sodipodi:ry="7.9000001"
         d="m 25.4,15 c 0,4.36305 -3.53695,7.9 -7.9,7.9 -4.36305,0 -7.9000001,-3.53695 -7.9000001,-7.9 0,-4.36305 3.5369501,-7.9000001 7.9000001,-7.9000001 4.36305,0 7.9,3.5369501 7.9,7.9000001 z" />
      <circle
         id="circle3089"
         style="fill:none;stroke:#000000;stroke-width:0.34999999;stroke-miterlimit:4;stroke-dasharray:none"
         r="7.9000001"
         cy="-15"
         cx="17.5"
         sodipodi:cx="17.5"
         sodipodi:cy="-15"
         sodipodi:rx="7.9000001"
         sodipodi:ry="7.9000001"
         d="m 25.4,-15 c 0,4.36305 -3.53695,7.9000001 -7.9,7.9000001 -4.36305,0 -7.9000001,-3.5369501 -7.9000001,-7.9000001 0,-4.36305 3.5369501,-7.9 7.9000001,-7.9 4.36305,0 7.9,3.53695 7.9,7.9 z" />
    </g>
    <g
       id="g3172"
       transform="matrix(3.5433068,0,0,-3.5433068,1666.1912,43.530905)">
      <path
         style="fill:none;stroke:#000000;stroke-width:0.34999999;stroke-miterlimit:4;stroke-dasharray:none"
         d="m -112,35 0,-23.5 -3,0 0,-23 3,0 0,-23.5 20,0 0,3 25,0 0,-3 25,0 0,3 25,0 0,-3 34,0 0,3 25,0 0,-3 25,0 0,3 25,0 0,-3 20,0 0,23.5 3,0 0,23 -3,0 0,23.5 -20,0 0,-3 -25,0 0,3 -25,0 0,-3 -25,0 0,3 -34,0 0,-3 -25,0 0,3 -25,0 0,-3 -25,0 0,3 -20,0"
         id="Sketch-8"
         inkscape:connector-curvature="0" />
      <circle
         id="circle3175"
         style="fill:none;stroke:#000000;stroke-width:0.34999999;stroke-miterlimit:4;stroke-dasharray:none"
         r="2.0999999"
         cy="0"
         cx="23"
         sodipodi:cx="23"
         sodipodi:cy="0"
         sodipodi:rx="2.0999999"
         sodipodi:ry="2.0999999"
         d="m 25.1,0 c 0,1.1597979 -0.940202,2.0999999 -2.1,2.0999999 -1.159798,0 -2.1,-0.940202 -2.1,-2.0999999 0,-1.1597979 0.940202,-2.0999999 2.1,-2.0999999 1.159798,0 2.1,0.940202 2.1,2.0999999 z" />
      <circle
         id="circle3177"
         style="fill:none;stroke:#000000;stroke-width:0.34999999;stroke-miterlimit:4;stroke-dasharray:none"
         r="2.0999999"
         cy="0"
         cx="70"
         sodipodi:cx="70"
         sodipodi:cy="0"
         sodipodi:rx="2.0999999"
         sodipodi:ry="2.0999999"
         d="m 72.1,0 c 0,1.1597979 -0.940202,2.0999999 -2.1,2.0999999 -1.159798,0 -2.1,-0.940202 -2.1,-2.0999999 0,-1.1597979 0.940202,-2.0999999 2.1,-2.0999999 1.159798,0 2.1,0.940202 2.1,2.0999999 z" />
      <circle
         id="circle3179"
         style="fill:none;stroke:#000000;stroke-width:0.34999999;stroke-miterlimit:4;stroke-dasharray:none"
         r="5"
         cy="7.5"
         cx="-80"
         sodipodi:cx="-80"
         sodipodi:cy="7.5"
         sodipodi:rx="5"
         sodipodi:ry="5"
         d="m -75,7.5 c 0,2.761424 -2.238576,5 -5,5 -2.761424,0 -5,-2.238576 -5,-5 0,-2.7614237 2.238576,-5 5,-5 2.761424,0 5,2.2385763 5,5 z" />
      <circle
         id="circle3181"
         style="fill:none;stroke:#000000;stroke-width:0.34999999;stroke-miterlimit:4;stroke-dasharray:none"
         r="5"
         cy="7.5"
         cx="-65"
         sodipodi:cx="-65"
         sodipodi:cy="7.5"
         sodipodi:rx="5"
         sodipodi:ry="5"
         d="m -60,7.5 c 0,2.761424 -2.238576,5 -5,5 -2.761424,0 -5,-2.238576 -5,-5 0,-2.7614237 2.238576,-5 5,-5 2.761424,0 5,2.2385763 5,5 z" />
      <circle
         id="circle3183"
         style="fill:none;stroke:#000000;stroke-width:0.34999999;stroke-miterlimit:4;stroke-dasharray:none"
         r="5"
         cy="7.5"
         cx="-50"
         sodipodi:cx="-50"
         sodipodi:cy="7.5"
         sodipodi:rx="5"
         sodipodi:ry="5"
         d="m -45,7.5 c 0,2.761424 -2.238576,5 -5,5 -2.761424,0 -5,-2.238576 -5,-5 0,-2.7614237 2.238576,-5 5,-5 2.761424,0 5,2.2385763 5,5 z" />
      <circle
         id="circle3185"
         style="fill:none;stroke:#000000;stroke-width:0.34999999;stroke-miterlimit:4;stroke-dasharray:none"
         r="5"
         cy="7.5"
         cx="-35"
         sodipodi:cx="-35"
         sodipodi:cy="7.5"
         sodipodi:rx="5"
         sodipodi:ry="5"
         d="m -30,7.5 c 0,2.761424 -2.238576,5 -5,5 -2.761424,0 -5,-2.238576 -5,-5 0,-2.7614237 2.238576,-5 5,-5 2.761424,0 5,2.2385763 5,5 z" />
      <circle
         id="circle3187"
         style="fill:none;stroke:#000000;stroke-width:0.34999999;stroke-miterlimit:4;stroke-dasharray:none"
         r="5"
         cy="-7.5"
         cx="-80"
         sodipodi:cx="-80"
         sodipodi:cy="-7.5"
         sodipodi:rx="5"
         sodipodi:ry="5"
         d="m -75,-7.5 c 0,2.7614237 -2.238576,5 -5,5 -2.761424,0 -5,-2.2385763 -5,-5 0,-2.761424 2.238576,-5 5,-5 2.761424,0 5,2.238576 5,5 z" />
      <circle
         id="circle3189"
         style="fill:none;stroke:#000000;stroke-width:0.34999999;stroke-miterlimit:4;stroke-dasharray:none"
         r="5"
         cy="-7.5"
         cx="-65"
         sodipodi:cx="-65"
         sodipodi:cy="-7.5"
         sodipodi:rx="5"
         sodipodi:ry="5"
         d="m -60,-7.5 c 0,2.7614237 -2.238576,5 -5,5 -2.761424,0 -5,-2.2385763 -5,-5 0,-2.761424 2.238576,-5 5,-5 2.761424,0 5,2.238576 5,5 z" />
      <circle
         id="circle3191"
         style="fill:none;stroke:#000000;stroke-width:0.34999999;stroke-miterlimit:4;stroke-dasharray:none"
         r="5"
         cy="-7.5"
         cx="-50"
         sodipodi:cx="-50"
         sodipodi:cy="-7.5"
         sodipodi:rx="5"
         sodipodi:ry="5"
         d="m -45,-7.5 c 0,2.7614237 -2.238576,5 -5,5 -2.761424,0 -5,-2.2385763 -5,-5 0,-2.761424 2.238576,-5 5,-5 2.761424,0 5,2.238576 5,5 z" />
      <circle
         id="circle3193"
         style="fill:none;stroke:#000000;stroke-width:0.34999999;stroke-miterlimit:4;stroke-dasharray:none"
         r="5"
         cy="-7.5"
         cx="-35"
         sodipodi:cx="-35"
         sodipodi:cy="-7.5"
         sodipodi:rx="5"
         sodipodi:ry="5"
         d="m -30,-7.5 c 0,2.7614237 -2.238576,5 -5,5 -2.761424,0 -5,-2.2385763 -5,-5 0,-2.761424 2.238576,-5 5,-5 2.761424,0 5,2.238576 5,5 z" />
    </g>
    <g
       id="g3263"
       transform="matrix(3.5433071,0,0,-3.5433071,1046.3054,341.53065)">
      <path
         style="fill:none;stroke:#000000;stroke-width:0.34999999;stroke-miterlimit:4;stroke-dasharray:none"
         d="m -22,22 44,0 0,-44 -44,0 0,44"
         id="Sketch-2"
         inkscape:connector-curvature="0" />
      <path
         style="fill:none;stroke:#000000;stroke-width:0.34999999;stroke-miterlimit:4;stroke-dasharray:none"
         d="m -35,35 23.5,0 0,-3 23,0 0,3 23.5,0 0,-23.5 -3,0 0,-23 3,0 0,-23.5 -23.5,0 0,3 -23,0 0,-3 -23.5,0 0,23.5 3,0 0,23 -3,0 0,23.5"
         id="path3266"
         inkscape:connector-curvature="0" />
    </g>
    <g
       id="g3530"
       transform="matrix(3.5433068,0,0,-3.5433068,1605.2857,-105.11036)">
      <path
         style="fill:none;stroke:#000000;stroke-width:0.34999999;stroke-miterlimit:4;stroke-dasharray:none"
         d="m -112,23.5 -3,0 0,23 3,0 0,20.5 3,0 0,3 3,0 0,-3 3,-52.172221 A 3,3 0 0 1 -100.00495,12 l 200.0099,0 A 3,3 0 0 1 103,14.827779 L 106,67 l 0,3 3,0 0,-3 3,0 0,-20.5 3,0 0,-23 -3,0 L 112,3 90,3 90,0 65,0 65,3 40,3 40,0 15,0 l 0,3 -30,0 0,-3 -25,0 0,3 -25,0 0,-3 -25,0 0,3 -22,0 0,20.5"
         id="Sketch-37"
         inkscape:connector-curvature="0" />
    </g>
    <g
       id="g3589"
       transform="matrix(0,3.5433069,3.5433069,0,951.57815,-215.18863)">
      <path
         style="fill:none;stroke:#000000;stroke-width:0.34999999;stroke-miterlimit:4;stroke-dasharray:none"
         d="m 11.5,3 0,-3 -23,0 0,3 -23.5,0 0,3 3,0 0,3 64,0 0,-3 3,0 0,-3 -23.5,0"
         id="Sketch-23"
         inkscape:connector-curvature="0" />
    </g>
    <g
       id="g3402"
       transform="matrix(3.543307,0,0,3.543307,1199.5499,753.09888)">
      <g
         id="g3359"
         transform="matrix(1,0,0,-1,123.93,40.43)">
        <circle
           id="circle3361"
           style="fill:none;stroke:#000000;stroke-width:0.34999999;stroke-miterlimit:4;stroke-dasharray:none"
           r="2.5"
           cy="22"
           cx="40"
           sodipodi:cx="40"
           sodipodi:cy="22"
           sodipodi:rx="2.5"
           sodipodi:ry="2.5"
           d="m 42.5,22 c 0,1.380712 -1.119288,2.5 -2.5,2.5 -1.380712,0 -2.5,-1.119288 -2.5,-2.5 0,-1.380712 1.119288,-2.5 2.5,-2.5 1.380712,0 2.5,1.119288 2.5,2.5 z" />
        <circle
           id="circle3363"
           style="fill:none;stroke:#000000;stroke-width:0.34999999;stroke-miterlimit:4;stroke-dasharray:none"
           r="2.5"
           cy="22"
           cx="52"
           sodipodi:cx="52"
           sodipodi:cy="22"
           sodipodi:rx="2.5"
           sodipodi:ry="2.5"
           d="m 54.5,22 c 0,1.380712 -1.119288,2.5 -2.5,2.5 -1.380712,0 -2.5,-1.119288 -2.5,-2.5 0,-1.380712 1.119288,-2.5 2.5,-2.5 1.380712,0 2.5,1.119288 2.5,2.5 z" />
        <circle
           id="circle3365"
           style="fill:none;stroke:#000000;stroke-width:0.34999999;stroke-miterlimit:4;stroke-dasharray:none"
           r="2.5"
           cy="22"
           cx="64"
           sodipodi:cx="64"
           sodipodi:cy="22"
           sodipodi:rx="2.5"
           sodipodi:ry="2.5"
           d="m 66.5,22 c 0,1.380712 -1.119288,2.5 -2.5,2.5 -1.380712,0 -2.5,-1.119288 -2.5,-2.5 0,-1.380712 1.119288,-2.5 2.5,-2.5 1.380712,0 2.5,1.119288 2.5,2.5 z" />
        <circle
           id="circle3367"
           style="fill:none;stroke:#000000;stroke-width:0.34999999;stroke-miterlimit:4;stroke-dasharray:none"
           r="2.5"
           cy="22"
           cx="76"
           sodipodi:cx="76"
           sodipodi:cy="22"
           sodipodi:rx="2.5"
           sodipodi:ry="2.5"
           d="m 78.5,22 c 0,1.380712 -1.119288,2.5 -2.5,2.5 -1.380712,0 -2.5,-1.119288 -2.5,-2.5 0,-1.380712 1.119288,-2.5 2.5,-2.5 1.380712,0 2.5,1.119288 2.5,2.5 z" />
        <circle
           id="circle3369"
           style="fill:none;stroke:#000000;stroke-width:0.34999999;stroke-miterlimit:4;stroke-dasharray:none"
           r="2.5"
           cy="22"
           cx="88"
           sodipodi:cx="88"
           sodipodi:cy="22"
           sodipodi:rx="2.5"
           sodipodi:ry="2.5"
           d="m 90.5,22 c 0,1.380712 -1.119288,2.5 -2.5,2.5 -1.380712,0 -2.5,-1.119288 -2.5,-2.5 0,-1.380712 1.119288,-2.5 2.5,-2.5 1.380712,0 2.5,1.119288 2.5,2.5 z" />
        <circle
           id="circle3371"
           style="fill:none;stroke:#000000;stroke-width:0.34999999;stroke-miterlimit:4;stroke-dasharray:none"
           r="2.5"
           cy="16"
           cx="46"
           sodipodi:cx="46"
           sodipodi:cy="16"
           sodipodi:rx="2.5"
           sodipodi:ry="2.5"
           d="m 48.5,16 c 0,1.380712 -1.119288,2.5 -2.5,2.5 -1.380712,0 -2.5,-1.119288 -2.5,-2.5 0,-1.380712 1.119288,-2.5 2.5,-2.5 1.380712,0 2.5,1.119288 2.5,2.5 z" />
        <circle
           id="circle3373"
           style="fill:none;stroke:#000000;stroke-width:0.34999999;stroke-miterlimit:4;stroke-dasharray:none"
           r="2.5"
           cy="10"
           cx="40"
           sodipodi:cx="40"
           sodipodi:cy="10"
           sodipodi:rx="2.5"
           sodipodi:ry="2.5"
           d="m 42.5,10 c 0,1.380712 -1.119288,2.5 -2.5,2.5 -1.380712,0 -2.5,-1.119288 -2.5,-2.5 0,-1.3807119 1.119288,-2.5 2.5,-2.5 1.380712,0 2.5,1.1192881 2.5,2.5 z" />
        <circle
           id="circle3375"
           style="fill:none;stroke:#000000;stroke-width:0.34999999;stroke-miterlimit:4;stroke-dasharray:none"
           r="2.5"
           cy="10"
           cx="52"
           sodipodi:cx="52"
           sodipodi:cy="10"
           sodipodi:rx="2.5"
           sodipodi:ry="2.5"
           d="m 54.5,10 c 0,1.380712 -1.119288,2.5 -2.5,2.5 -1.380712,0 -2.5,-1.119288 -2.5,-2.5 0,-1.3807119 1.119288,-2.5 2.5,-2.5 1.380712,0 2.5,1.1192881 2.5,2.5 z" />
        <circle
           id="circle3377"
           style="fill:none;stroke:#000000;stroke-width:0.34999999;stroke-miterlimit:4;stroke-dasharray:none"
           r="2.5"
           cy="16"
           cx="58"
           sodipodi:cx="58"
           sodipodi:cy="16"
           sodipodi:rx="2.5"
           sodipodi:ry="2.5"
           d="m 60.5,16 c 0,1.380712 -1.119288,2.5 -2.5,2.5 -1.380712,0 -2.5,-1.119288 -2.5,-2.5 0,-1.380712 1.119288,-2.5 2.5,-2.5 1.380712,0 2.5,1.119288 2.5,2.5 z" />
        <circle
           id="circle3379"
           style="fill:none;stroke:#000000;stroke-width:0.34999999;stroke-miterlimit:4;stroke-dasharray:none"
           r="2.5"
           cy="10"
           cx="64"
           sodipodi:cx="64"
           sodipodi:cy="10"
           sodipodi:rx="2.5"
           sodipodi:ry="2.5"
           d="m 66.5,10 c 0,1.380712 -1.119288,2.5 -2.5,2.5 -1.380712,0 -2.5,-1.119288 -2.5,-2.5 0,-1.3807119 1.119288,-2.5 2.5,-2.5 1.380712,0 2.5,1.1192881 2.5,2.5 z" />
        <circle
           id="circle3381"
           style="fill:none;stroke:#000000;stroke-width:0.34999999;stroke-miterlimit:4;stroke-dasharray:none"
           r="2.5"
           cy="16"
           cx="70"
           sodipodi:cx="70"
           sodipodi:cy="16"
           sodipodi:rx="2.5"
           sodipodi:ry="2.5"
           d="m 72.5,16 c 0,1.380712 -1.119288,2.5 -2.5,2.5 -1.380712,0 -2.5,-1.119288 -2.5,-2.5 0,-1.380712 1.119288,-2.5 2.5,-2.5 1.380712,0 2.5,1.119288 2.5,2.5 z" />
        <circle
           id="circle3383"
           style="fill:none;stroke:#000000;stroke-width:0.34999999;stroke-miterlimit:4;stroke-dasharray:none"
           r="2.5"
           cy="10"
           cx="76"
           sodipodi:cx="76"
           sodipodi:cy="10"
           sodipodi:rx="2.5"
           sodipodi:ry="2.5"
           d="m 78.5,10 c 0,1.380712 -1.119288,2.5 -2.5,2.5 -1.380712,0 -2.5,-1.119288 -2.5,-2.5 0,-1.3807119 1.119288,-2.5 2.5,-2.5 1.380712,0 2.5,1.1192881 2.5,2.5 z" />
        <circle
           id="circle3385"
           style="fill:none;stroke:#000000;stroke-width:0.34999999;stroke-miterlimit:4;stroke-dasharray:none"
           r="2.5"
           cy="16"
           cx="82"
           sodipodi:cx="82"
           sodipodi:cy="16"
           sodipodi:rx="2.5"
           sodipodi:ry="2.5"
           d="m 84.5,16 c 0,1.380712 -1.119288,2.5 -2.5,2.5 -1.380712,0 -2.5,-1.119288 -2.5,-2.5 0,-1.380712 1.119288,-2.5 2.5,-2.5 1.380712,0 2.5,1.119288 2.5,2.5 z" />
        <circle
           id="circle3387"
           style="fill:none;stroke:#000000;stroke-width:0.34999999;stroke-miterlimit:4;stroke-dasharray:none"
           r="2.5"
           cy="10"
           cx="88"
           sodipodi:cx="88"
           sodipodi:cy="10"
           sodipodi:rx="2.5"
           sodipodi:ry="2.5"
           d="m 90.5,10 c 0,1.380712 -1.119288,2.5 -2.5,2.5 -1.380712,0 -2.5,-1.119288 -2.5,-2.5 0,-1.3807119 1.119288,-2.5 2.5,-2.5 1.380712,0 2.5,1.1192881 2.5,2.5 z" />
      </g>
      <g
         id="g3389"
         transform="matrix(1,0,0,-1,123.93,40.43)">
        <path
           style="fill:none;stroke:#000000;stroke-width:0.34999999;stroke-miterlimit:4;stroke-dasharray:none"
           d="m 87.5,38 0,-3 -25,0 0,3 -25,0 0,-3 -25,0 0,3 -25,0 0,-3 -25,0 0,3 -25,0 0,-3 -25,0 0,3 -25,0 0,-3 -9,0 10,-73 233,0 0,4.5 0,68.5 -9,0 0,3 -25,0"
           id="Sketch-5"
           inkscape:connector-curvature="0" />
        <circle
           id="circle3392"
           style="fill:none;stroke:#000000;stroke-width:0.34999999;stroke-miterlimit:4;stroke-dasharray:none"
           r="1.6"
           cy="-33.5"
           cx="-49"
           sodipodi:cx="-49"
           sodipodi:cy="-33.5"
           sodipodi:rx="1.6"
           sodipodi:ry="1.6"
           d="m -47.4,-33.5 c 0,0.883656 -0.716344,1.6 -1.6,1.6 -0.883656,0 -1.6,-0.716344 -1.6,-1.6 0,-0.883656 0.716344,-1.6 1.6,-1.6 0.883656,0 1.6,0.716344 1.6,1.6 z" />
        <circle
           id="circle3394"
           style="fill:none;stroke:#000000;stroke-width:0.34999999;stroke-miterlimit:4;stroke-dasharray:none"
           r="1.6"
           cy="-33.5"
           cx="56"
           sodipodi:cx="56"
           sodipodi:cy="-33.5"
           sodipodi:rx="1.6"
           sodipodi:ry="1.6"
           d="m 57.6,-33.5 c 0,0.883656 -0.716344,1.6 -1.6,1.6 -0.883656,0 -1.6,-0.716344 -1.6,-1.6 0,-0.883656 0.716344,-1.6 1.6,-1.6 0.883656,0 1.6,0.716344 1.6,1.6 z" />
      </g>
    </g>
    <g
       id="g3471"
       transform="matrix(3.543307,0,0,-3.543307,1641.5291,610.64051)">
      <path
         style="fill:none;stroke:#000000;stroke-width:0.34999999;stroke-miterlimit:4;stroke-dasharray:none"
         d="m -121.5,38 9,0 0,-3 25,0 0,3 25,0 0,-3 25,0 0,3 25,0 0,-3 25,0 0,3 25,0 0,-3 25,0 0,3 25,0 0,-3 25,0 0,3 9,0 0,-76 -9,0 0,3 -25,0 0,-3 -25,0 0,3 -25,0 0,-3 -25,0 0,3 -25,0 0,-3 -25,0 0,3 -25,0 0,-3 -25,0 0,3 -25,0 0,-3 -9,0 0,76"
         id="Sketch-3"
         inkscape:connector-curvature="0" />
    </g>
    <g
       id="g3402-3"
       transform="matrix(3.543307,0,0,-3.543307,1202.407,471.03915)">
      <g
         id="g3359-4"
         transform="matrix(1,0,0,-1,123.93,40.43)">
        <circle
           id="circle3361-7"
           style="fill:none;stroke:#000000;stroke-width:0.34999999;stroke-miterlimit:4;stroke-dasharray:none"
           r="2.5"
           cy="22"
           cx="40"
           sodipodi:cx="40"
           sodipodi:cy="22"
           sodipodi:rx="2.5"
           sodipodi:ry="2.5"
           d="m 42.5,22 c 0,1.380712 -1.119288,2.5 -2.5,2.5 -1.380712,0 -2.5,-1.119288 -2.5,-2.5 0,-1.380712 1.119288,-2.5 2.5,-2.5 1.380712,0 2.5,1.119288 2.5,2.5 z" />
        <circle
           id="circle3363-6"
           style="fill:none;stroke:#000000;stroke-width:0.34999999;stroke-miterlimit:4;stroke-dasharray:none"
           r="2.5"
           cy="22"
           cx="52"
           sodipodi:cx="52"
           sodipodi:cy="22"
           sodipodi:rx="2.5"
           sodipodi:ry="2.5"
           d="m 54.5,22 c 0,1.380712 -1.119288,2.5 -2.5,2.5 -1.380712,0 -2.5,-1.119288 -2.5,-2.5 0,-1.380712 1.119288,-2.5 2.5,-2.5 1.380712,0 2.5,1.119288 2.5,2.5 z" />
        <circle
           id="circle3365-5"
           style="fill:none;stroke:#000000;stroke-width:0.34999999;stroke-miterlimit:4;stroke-dasharray:none"
           r="2.5"
           cy="22"
           cx="64"
           sodipodi:cx="64"
           sodipodi:cy="22"
           sodipodi:rx="2.5"
           sodipodi:ry="2.5"
           d="m 66.5,22 c 0,1.380712 -1.119288,2.5 -2.5,2.5 -1.380712,0 -2.5,-1.119288 -2.5,-2.5 0,-1.380712 1.119288,-2.5 2.5,-2.5 1.380712,0 2.5,1.119288 2.5,2.5 z" />
        <circle
           id="circle3367-6"
           style="fill:none;stroke:#000000;stroke-width:0.34999999;stroke-miterlimit:4;stroke-dasharray:none"
           r="2.5"
           cy="22"
           cx="76"
           sodipodi:cx="76"
           sodipodi:cy="22"
           sodipodi:rx="2.5"
           sodipodi:ry="2.5"
           d="m 78.5,22 c 0,1.380712 -1.119288,2.5 -2.5,2.5 -1.380712,0 -2.5,-1.119288 -2.5,-2.5 0,-1.380712 1.119288,-2.5 2.5,-2.5 1.380712,0 2.5,1.119288 2.5,2.5 z" />
        <circle
           id="circle3369-7"
           style="fill:none;stroke:#000000;stroke-width:0.34999999;stroke-miterlimit:4;stroke-dasharray:none"
           r="2.5"
           cy="22"
           cx="88"
           sodipodi:cx="88"
           sodipodi:cy="22"
           sodipodi:rx="2.5"
           sodipodi:ry="2.5"
           d="m 90.5,22 c 0,1.380712 -1.119288,2.5 -2.5,2.5 -1.380712,0 -2.5,-1.119288 -2.5,-2.5 0,-1.380712 1.119288,-2.5 2.5,-2.5 1.380712,0 2.5,1.119288 2.5,2.5 z" />
        <circle
           id="circle3371-4"
           style="fill:none;stroke:#000000;stroke-width:0.34999999;stroke-miterlimit:4;stroke-dasharray:none"
           r="2.5"
           cy="16"
           cx="46"
           sodipodi:cx="46"
           sodipodi:cy="16"
           sodipodi:rx="2.5"
           sodipodi:ry="2.5"
           d="m 48.5,16 c 0,1.380712 -1.119288,2.5 -2.5,2.5 -1.380712,0 -2.5,-1.119288 -2.5,-2.5 0,-1.380712 1.119288,-2.5 2.5,-2.5 1.380712,0 2.5,1.119288 2.5,2.5 z" />
        <circle
           id="circle3373-3"
           style="fill:none;stroke:#000000;stroke-width:0.34999999;stroke-miterlimit:4;stroke-dasharray:none"
           r="2.5"
           cy="10"
           cx="40"
           sodipodi:cx="40"
           sodipodi:cy="10"
           sodipodi:rx="2.5"
           sodipodi:ry="2.5"
           d="m 42.5,10 c 0,1.380712 -1.119288,2.5 -2.5,2.5 -1.380712,0 -2.5,-1.119288 -2.5,-2.5 0,-1.3807119 1.119288,-2.5 2.5,-2.5 1.380712,0 2.5,1.1192881 2.5,2.5 z" />
        <circle
           id="circle3375-7"
           style="fill:none;stroke:#000000;stroke-width:0.34999999;stroke-miterlimit:4;stroke-dasharray:none"
           r="2.5"
           cy="10"
           cx="52"
           sodipodi:cx="52"
           sodipodi:cy="10"
           sodipodi:rx="2.5"
           sodipodi:ry="2.5"
           d="m 54.5,10 c 0,1.380712 -1.119288,2.5 -2.5,2.5 -1.380712,0 -2.5,-1.119288 -2.5,-2.5 0,-1.3807119 1.119288,-2.5 2.5,-2.5 1.380712,0 2.5,1.1192881 2.5,2.5 z" />
        <circle
           id="circle3377-7"
           style="fill:none;stroke:#000000;stroke-width:0.34999999;stroke-miterlimit:4;stroke-dasharray:none"
           r="2.5"
           cy="16"
           cx="58"
           sodipodi:cx="58"
           sodipodi:cy="16"
           sodipodi:rx="2.5"
           sodipodi:ry="2.5"
           d="m 60.5,16 c 0,1.380712 -1.119288,2.5 -2.5,2.5 -1.380712,0 -2.5,-1.119288 -2.5,-2.5 0,-1.380712 1.119288,-2.5 2.5,-2.5 1.380712,0 2.5,1.119288 2.5,2.5 z" />
        <circle
           id="circle3379-6"
           style="fill:none;stroke:#000000;stroke-width:0.34999999;stroke-miterlimit:4;stroke-dasharray:none"
           r="2.5"
           cy="10"
           cx="64"
           sodipodi:cx="64"
           sodipodi:cy="10"
           sodipodi:rx="2.5"
           sodipodi:ry="2.5"
           d="m 66.5,10 c 0,1.380712 -1.119288,2.5 -2.5,2.5 -1.380712,0 -2.5,-1.119288 -2.5,-2.5 0,-1.3807119 1.119288,-2.5 2.5,-2.5 1.380712,0 2.5,1.1192881 2.5,2.5 z" />
        <circle
           id="circle3381-1"
           style="fill:none;stroke:#000000;stroke-width:0.34999999;stroke-miterlimit:4;stroke-dasharray:none"
           r="2.5"
           cy="16"
           cx="70"
           sodipodi:cx="70"
           sodipodi:cy="16"
           sodipodi:rx="2.5"
           sodipodi:ry="2.5"
           d="m 72.5,16 c 0,1.380712 -1.119288,2.5 -2.5,2.5 -1.380712,0 -2.5,-1.119288 -2.5,-2.5 0,-1.380712 1.119288,-2.5 2.5,-2.5 1.380712,0 2.5,1.119288 2.5,2.5 z" />
        <circle
           id="circle3383-0"
           style="fill:none;stroke:#000000;stroke-width:0.34999999;stroke-miterlimit:4;stroke-dasharray:none"
           r="2.5"
           cy="10"
           cx="76"
           sodipodi:cx="76"
           sodipodi:cy="10"
           sodipodi:rx="2.5"
           sodipodi:ry="2.5"
           d="m 78.5,10 c 0,1.380712 -1.119288,2.5 -2.5,2.5 -1.380712,0 -2.5,-1.119288 -2.5,-2.5 0,-1.3807119 1.119288,-2.5 2.5,-2.5 1.380712,0 2.5,1.1192881 2.5,2.5 z" />
        <circle
           id="circle3385-6"
           style="fill:none;stroke:#000000;stroke-width:0.34999999;stroke-miterlimit:4;stroke-dasharray:none"
           r="2.5"
           cy="16"
           cx="82"
           sodipodi:cx="82"
           sodipodi:cy="16"
           sodipodi:rx="2.5"
           sodipodi:ry="2.5"
           d="m 84.5,16 c 0,1.380712 -1.119288,2.5 -2.5,2.5 -1.380712,0 -2.5,-1.119288 -2.5,-2.5 0,-1.380712 1.119288,-2.5 2.5,-2.5 1.380712,0 2.5,1.119288 2.5,2.5 z" />
        <circle
           id="circle3387-8"
           style="fill:none;stroke:#000000;stroke-width:0.34999999;stroke-miterlimit:4;stroke-dasharray:none"
           r="2.5"
           cy="10"
           cx="88"
           sodipodi:cx="88"
           sodipodi:cy="10"
           sodipodi:rx="2.5"
           sodipodi:ry="2.5"
           d="m 90.5,10 c 0,1.380712 -1.119288,2.5 -2.5,2.5 -1.380712,0 -2.5,-1.119288 -2.5,-2.5 0,-1.3807119 1.119288,-2.5 2.5,-2.5 1.380712,0 2.5,1.1192881 2.5,2.5 z" />
      </g>
      <g
         id="g3389-5"
         transform="matrix(1,0,0,-1,123.93,40.43)">
        <path
           style="fill:none;stroke:#000000;stroke-width:0.34999999;stroke-miterlimit:4;stroke-dasharray:none"
           d="m 87.5,38 0,-3 -25,0 0,3 -25,0 0,-3 -25,0 0,3 -25,0 0,-3 -25,0 0,3 -25,0 0,-3 -25,0 0,3 -25,0 0,-3 -9,0 10,-73 233,0 0,4.5 0,68.5 -9,0 0,3 -25,0"
           id="Sketch-5-1"
           inkscape:connector-curvature="0" />
        <circle
           id="circle3392-5"
           style="fill:none;stroke:#000000;stroke-width:0.34999999;stroke-miterlimit:4;stroke-dasharray:none"
           r="1.6"
           cy="-33.5"
           cx="-49"
           sodipodi:cx="-49"
           sodipodi:cy="-33.5"
           sodipodi:rx="1.6"
           sodipodi:ry="1.6"
           d="m -47.4,-33.5 c 0,0.883656 -0.716344,1.6 -1.6,1.6 -0.883656,0 -1.6,-0.716344 -1.6,-1.6 0,-0.883656 0.716344,-1.6 1.6,-1.6 0.883656,0 1.6,0.716344 1.6,1.6 z" />
        <circle
           id="circle3394-8"
           style="fill:none;stroke:#000000;stroke-width:0.34999999;stroke-miterlimit:4;stroke-dasharray:none"
           r="1.6"
           cy="-33.5"
           cx="56"
           sodipodi:cx="56"
           sodipodi:cy="-33.5"
           sodipodi:rx="1.6"
           sodipodi:ry="1.6"
           d="m 57.6,-33.5 c 0,0.883656 -0.716344,1.6 -1.6,1.6 -0.883656,0 -1.6,-0.716344 -1.6,-1.6 0,-0.883656 0.716344,-1.6 1.6,-1.6 0.883656,0 1.6,0.716344 1.6,1.6 z" />
      </g>
    </g>
    <g
       id="g3589-9"
       transform="matrix(0,3.5433069,3.5433069,0,1002.0631,-216.18696)">
      <path
         style="fill:none;stroke:#000000;stroke-width:0.34999999;stroke-miterlimit:4;stroke-dasharray:none"
         d="m 11.5,3 0,-3 -23,0 0,3 -23.5,0 0,3 3,0 0,3 64,0 0,-3 3,0 0,-3 -23.5,0"
         id="Sketch-23-9"
         inkscape:connector-curvature="0" />
    </g>
    <g
       id="g3530-1"
       transform="matrix(3.5433068,0,0,3.5433068,1672.8406,-411.06353)">
      <path
         style="fill:none;stroke:#000000;stroke-width:0.34999999;stroke-miterlimit:4;stroke-dasharray:none"
         d="m -112,23.5 -3,0 0,23 3,0 0,20.5 3,0 0,3 3,0 0,-3 3,-52.172221 A 3,3 0 0 1 -100.00495,12 l 200.0099,0 A 3,3 0 0 1 103,14.827779 L 106,67 l 0,3 3,0 0,-3 3,0 0,-20.5 3,0 0,-23 -3,0 L 112,3 90,3 90,0 65,0 65,3 40,3 40,0 15,0 l 0,3 -30,0 0,-3 -25,0 0,3 -25,0 0,-3 -25,0 0,3 -22,0 0,20.5"
         id="Sketch-37-7"
         inkscape:connector-curvature="0" />
    </g>
    <g
       id="g3402-31"
       transform="matrix(-3.543307,0,0,-3.543307,901.6293,462.38724)">
      <g
         id="g3359-9"
         transform="matrix(1,0,0,-1,123.93,40.43)">
        <circle
           id="circle3361-0"
           style="fill:none;stroke:#000000;stroke-width:0.34999999;stroke-miterlimit:4;stroke-dasharray:none"
           r="2.5"
           cy="22"
           cx="40"
           sodipodi:cx="40"
           sodipodi:cy="22"
           sodipodi:rx="2.5"
           sodipodi:ry="2.5"
           d="m 42.5,22 c 0,1.380712 -1.119288,2.5 -2.5,2.5 -1.380712,0 -2.5,-1.119288 -2.5,-2.5 0,-1.380712 1.119288,-2.5 2.5,-2.5 1.380712,0 2.5,1.119288 2.5,2.5 z" />
        <circle
           id="circle3363-5"
           style="fill:none;stroke:#000000;stroke-width:0.34999999;stroke-miterlimit:4;stroke-dasharray:none"
           r="2.5"
           cy="22"
           cx="52"
           sodipodi:cx="52"
           sodipodi:cy="22"
           sodipodi:rx="2.5"
           sodipodi:ry="2.5"
           d="m 54.5,22 c 0,1.380712 -1.119288,2.5 -2.5,2.5 -1.380712,0 -2.5,-1.119288 -2.5,-2.5 0,-1.380712 1.119288,-2.5 2.5,-2.5 1.380712,0 2.5,1.119288 2.5,2.5 z" />
        <circle
           id="circle3365-6"
           style="fill:none;stroke:#000000;stroke-width:0.34999999;stroke-miterlimit:4;stroke-dasharray:none"
           r="2.5"
           cy="22"
           cx="64"
           sodipodi:cx="64"
           sodipodi:cy="22"
           sodipodi:rx="2.5"
           sodipodi:ry="2.5"
           d="m 66.5,22 c 0,1.380712 -1.119288,2.5 -2.5,2.5 -1.380712,0 -2.5,-1.119288 -2.5,-2.5 0,-1.380712 1.119288,-2.5 2.5,-2.5 1.380712,0 2.5,1.119288 2.5,2.5 z" />
        <circle
           id="circle3367-64"
           style="fill:none;stroke:#000000;stroke-width:0.34999999;stroke-miterlimit:4;stroke-dasharray:none"
           r="2.5"
           cy="22"
           cx="76"
           sodipodi:cx="76"
           sodipodi:cy="22"
           sodipodi:rx="2.5"
           sodipodi:ry="2.5"
           d="m 78.5,22 c 0,1.380712 -1.119288,2.5 -2.5,2.5 -1.380712,0 -2.5,-1.119288 -2.5,-2.5 0,-1.380712 1.119288,-2.5 2.5,-2.5 1.380712,0 2.5,1.119288 2.5,2.5 z" />
        <circle
           id="circle3369-1"
           style="fill:none;stroke:#000000;stroke-width:0.34999999;stroke-miterlimit:4;stroke-dasharray:none"
           r="2.5"
           cy="22"
           cx="88"
           sodipodi:cx="88"
           sodipodi:cy="22"
           sodipodi:rx="2.5"
           sodipodi:ry="2.5"
           d="m 90.5,22 c 0,1.380712 -1.119288,2.5 -2.5,2.5 -1.380712,0 -2.5,-1.119288 -2.5,-2.5 0,-1.380712 1.119288,-2.5 2.5,-2.5 1.380712,0 2.5,1.119288 2.5,2.5 z" />
        <circle
           id="circle3371-46"
           style="fill:none;stroke:#000000;stroke-width:0.34999999;stroke-miterlimit:4;stroke-dasharray:none"
           r="2.5"
           cy="16"
           cx="46"
           sodipodi:cx="46"
           sodipodi:cy="16"
           sodipodi:rx="2.5"
           sodipodi:ry="2.5"
           d="m 48.5,16 c 0,1.380712 -1.119288,2.5 -2.5,2.5 -1.380712,0 -2.5,-1.119288 -2.5,-2.5 0,-1.380712 1.119288,-2.5 2.5,-2.5 1.380712,0 2.5,1.119288 2.5,2.5 z" />
        <circle
           id="circle3373-0"
           style="fill:none;stroke:#000000;stroke-width:0.34999999;stroke-miterlimit:4;stroke-dasharray:none"
           r="2.5"
           cy="10"
           cx="40"
           sodipodi:cx="40"
           sodipodi:cy="10"
           sodipodi:rx="2.5"
           sodipodi:ry="2.5"
           d="m 42.5,10 c 0,1.380712 -1.119288,2.5 -2.5,2.5 -1.380712,0 -2.5,-1.119288 -2.5,-2.5 0,-1.3807119 1.119288,-2.5 2.5,-2.5 1.380712,0 2.5,1.1192881 2.5,2.5 z" />
        <circle
           id="circle3375-4"
           style="fill:none;stroke:#000000;stroke-width:0.34999999;stroke-miterlimit:4;stroke-dasharray:none"
           r="2.5"
           cy="10"
           cx="52"
           sodipodi:cx="52"
           sodipodi:cy="10"
           sodipodi:rx="2.5"
           sodipodi:ry="2.5"
           d="m 54.5,10 c 0,1.380712 -1.119288,2.5 -2.5,2.5 -1.380712,0 -2.5,-1.119288 -2.5,-2.5 0,-1.3807119 1.119288,-2.5 2.5,-2.5 1.380712,0 2.5,1.1192881 2.5,2.5 z" />
        <circle
           id="circle3377-3"
           style="fill:none;stroke:#000000;stroke-width:0.34999999;stroke-miterlimit:4;stroke-dasharray:none"
           r="2.5"
           cy="16"
           cx="58"
           sodipodi:cx="58"
           sodipodi:cy="16"
           sodipodi:rx="2.5"
           sodipodi:ry="2.5"
           d="m 60.5,16 c 0,1.380712 -1.119288,2.5 -2.5,2.5 -1.380712,0 -2.5,-1.119288 -2.5,-2.5 0,-1.380712 1.119288,-2.5 2.5,-2.5 1.380712,0 2.5,1.119288 2.5,2.5 z" />
        <circle
           id="circle3379-0"
           style="fill:none;stroke:#000000;stroke-width:0.34999999;stroke-miterlimit:4;stroke-dasharray:none"
           r="2.5"
           cy="10"
           cx="64"
           sodipodi:cx="64"
           sodipodi:cy="10"
           sodipodi:rx="2.5"
           sodipodi:ry="2.5"
           d="m 66.5,10 c 0,1.380712 -1.119288,2.5 -2.5,2.5 -1.380712,0 -2.5,-1.119288 -2.5,-2.5 0,-1.3807119 1.119288,-2.5 2.5,-2.5 1.380712,0 2.5,1.1192881 2.5,2.5 z" />
        <circle
           id="circle3381-4"
           style="fill:none;stroke:#000000;stroke-width:0.34999999;stroke-miterlimit:4;stroke-dasharray:none"
           r="2.5"
           cy="16"
           cx="70"
           sodipodi:cx="70"
           sodipodi:cy="16"
           sodipodi:rx="2.5"
           sodipodi:ry="2.5"
           d="m 72.5,16 c 0,1.380712 -1.119288,2.5 -2.5,2.5 -1.380712,0 -2.5,-1.119288 -2.5,-2.5 0,-1.380712 1.119288,-2.5 2.5,-2.5 1.380712,0 2.5,1.119288 2.5,2.5 z" />
        <circle
           id="circle3383-7"
           style="fill:none;stroke:#000000;stroke-width:0.34999999;stroke-miterlimit:4;stroke-dasharray:none"
           r="2.5"
           cy="10"
           cx="76"
           sodipodi:cx="76"
           sodipodi:cy="10"
           sodipodi:rx="2.5"
           sodipodi:ry="2.5"
           d="m 78.5,10 c 0,1.380712 -1.119288,2.5 -2.5,2.5 -1.380712,0 -2.5,-1.119288 -2.5,-2.5 0,-1.3807119 1.119288,-2.5 2.5,-2.5 1.380712,0 2.5,1.1192881 2.5,2.5 z" />
        <circle
           id="circle3385-8"
           style="fill:none;stroke:#000000;stroke-width:0.34999999;stroke-miterlimit:4;stroke-dasharray:none"
           r="2.5"
           cy="16"
           cx="82"
           sodipodi:cx="82"
           sodipodi:cy="16"
           sodipodi:rx="2.5"
           sodipodi:ry="2.5"
           d="m 84.5,16 c 0,1.380712 -1.119288,2.5 -2.5,2.5 -1.380712,0 -2.5,-1.119288 -2.5,-2.5 0,-1.380712 1.119288,-2.5 2.5,-2.5 1.380712,0 2.5,1.119288 2.5,2.5 z" />
        <circle
           id="circle3387-2"
           style="fill:none;stroke:#000000;stroke-width:0.34999999;stroke-miterlimit:4;stroke-dasharray:none"
           r="2.5"
           cy="10"
           cx="88"
           sodipodi:cx="88"
           sodipodi:cy="10"
           sodipodi:rx="2.5"
           sodipodi:ry="2.5"
           d="m 90.5,10 c 0,1.380712 -1.119288,2.5 -2.5,2.5 -1.380712,0 -2.5,-1.119288 -2.5,-2.5 0,-1.3807119 1.119288,-2.5 2.5,-2.5 1.380712,0 2.5,1.1192881 2.5,2.5 z" />
      </g>
      <g
         id="g3389-1"
         transform="matrix(1,0,0,-1,123.93,40.43)">
        <path
           style="fill:none;stroke:#000000;stroke-width:0.34999999;stroke-miterlimit:4;stroke-dasharray:none"
           d="m 87.5,38 0,-3 -25,0 0,3 -25,0 0,-3 -25,0 0,3 -25,0 0,-3 -25,0 0,3 -25,0 0,-3 -25,0 0,3 -25,0 0,-3 -9,0 10,-73 233,0 0,4.5 0,68.5 -9,0 0,3 -25,0"
           id="Sketch-5-5"
           inkscape:connector-curvature="0" />
        <circle
           id="circle3392-2"
           style="fill:none;stroke:#000000;stroke-width:0.34999999;stroke-miterlimit:4;stroke-dasharray:none"
           r="1.6"
           cy="-33.5"
           cx="-49"
           sodipodi:cx="-49"
           sodipodi:cy="-33.5"
           sodipodi:rx="1.6"
           sodipodi:ry="1.6"
           d="m -47.4,-33.5 c 0,0.883656 -0.716344,1.6 -1.6,1.6 -0.883656,0 -1.6,-0.716344 -1.6,-1.6 0,-0.883656 0.716344,-1.6 1.6,-1.6 0.883656,0 1.6,0.716344 1.6,1.6 z" />
        <circle
           id="circle3394-9"
           style="fill:none;stroke:#000000;stroke-width:0.34999999;stroke-miterlimit:4;stroke-dasharray:none"
           r="1.6"
           cy="-33.5"
           cx="56"
           sodipodi:cx="56"
           sodipodi:cy="-33.5"
           sodipodi:rx="1.6"
           sodipodi:ry="1.6"
           d="m 57.6,-33.5 c 0,0.883656 -0.716344,1.6 -1.6,1.6 -0.883656,0 -1.6,-0.716344 -1.6,-1.6 0,-0.883656 0.716344,-1.6 1.6,-1.6 0.883656,0 1.6,0.716344 1.6,1.6 z" />
      </g>
    </g>
    <g
       id="g3471-3"
       transform="matrix(-3.543307,0,0,3.543307,459.6501,604.84561)">
      <path
         style="fill:none;stroke:#000000;stroke-width:0.34999999;stroke-miterlimit:4;stroke-dasharray:none"
         d="m -121.5,38 9,0 0,-3 25,0 0,3 25,0 0,-3 25,0 0,3 25,0 0,-3 25,0 0,3 25,0 0,-3 25,0 0,3 25,0 0,-3 25,0 0,3 9,0 0,-76 -9,0 0,3 -25,0 0,-3 -25,0 0,3 -25,0 0,-3 -25,0 0,3 -25,0 0,-3 -25,0 0,3 -25,0 0,-3 -25,0 0,3 -25,0 0,-3 -9,0 0,76"
         id="Sketch-3-9"
         inkscape:connector-curvature="0" />
    </g>
    <g
       id="g3402-3-9"
       transform="matrix(-3.543307,0,0,3.543307,898.7722,744.44697)">
      <g
         id="g3359-4-3"
         transform="matrix(1,0,0,-1,123.93,40.43)">
        <circle
           id="circle3361-7-4"
           style="fill:none;stroke:#000000;stroke-width:0.34999999;stroke-miterlimit:4;stroke-dasharray:none"
           r="2.5"
           cy="22"
           cx="40"
           sodipodi:cx="40"
           sodipodi:cy="22"
           sodipodi:rx="2.5"
           sodipodi:ry="2.5"
           d="m 42.5,22 c 0,1.380712 -1.119288,2.5 -2.5,2.5 -1.380712,0 -2.5,-1.119288 -2.5,-2.5 0,-1.380712 1.119288,-2.5 2.5,-2.5 1.380712,0 2.5,1.119288 2.5,2.5 z" />
        <circle
           id="circle3363-6-3"
           style="fill:none;stroke:#000000;stroke-width:0.34999999;stroke-miterlimit:4;stroke-dasharray:none"
           r="2.5"
           cy="22"
           cx="52"
           sodipodi:cx="52"
           sodipodi:cy="22"
           sodipodi:rx="2.5"
           sodipodi:ry="2.5"
           d="m 54.5,22 c 0,1.380712 -1.119288,2.5 -2.5,2.5 -1.380712,0 -2.5,-1.119288 -2.5,-2.5 0,-1.380712 1.119288,-2.5 2.5,-2.5 1.380712,0 2.5,1.119288 2.5,2.5 z" />
        <circle
           id="circle3365-5-0"
           style="fill:none;stroke:#000000;stroke-width:0.34999999;stroke-miterlimit:4;stroke-dasharray:none"
           r="2.5"
           cy="22"
           cx="64"
           sodipodi:cx="64"
           sodipodi:cy="22"
           sodipodi:rx="2.5"
           sodipodi:ry="2.5"
           d="m 66.5,22 c 0,1.380712 -1.119288,2.5 -2.5,2.5 -1.380712,0 -2.5,-1.119288 -2.5,-2.5 0,-1.380712 1.119288,-2.5 2.5,-2.5 1.380712,0 2.5,1.119288 2.5,2.5 z" />
        <circle
           id="circle3367-6-8"
           style="fill:none;stroke:#000000;stroke-width:0.34999999;stroke-miterlimit:4;stroke-dasharray:none"
           r="2.5"
           cy="22"
           cx="76"
           sodipodi:cx="76"
           sodipodi:cy="22"
           sodipodi:rx="2.5"
           sodipodi:ry="2.5"
           d="m 78.5,22 c 0,1.380712 -1.119288,2.5 -2.5,2.5 -1.380712,0 -2.5,-1.119288 -2.5,-2.5 0,-1.380712 1.119288,-2.5 2.5,-2.5 1.380712,0 2.5,1.119288 2.5,2.5 z" />
        <circle
           id="circle3369-7-6"
           style="fill:none;stroke:#000000;stroke-width:0.34999999;stroke-miterlimit:4;stroke-dasharray:none"
           r="2.5"
           cy="22"
           cx="88"
           sodipodi:cx="88"
           sodipodi:cy="22"
           sodipodi:rx="2.5"
           sodipodi:ry="2.5"
           d="m 90.5,22 c 0,1.380712 -1.119288,2.5 -2.5,2.5 -1.380712,0 -2.5,-1.119288 -2.5,-2.5 0,-1.380712 1.119288,-2.5 2.5,-2.5 1.380712,0 2.5,1.119288 2.5,2.5 z" />
        <circle
           id="circle3371-4-3"
           style="fill:none;stroke:#000000;stroke-width:0.34999999;stroke-miterlimit:4;stroke-dasharray:none"
           r="2.5"
           cy="16"
           cx="46"
           sodipodi:cx="46"
           sodipodi:cy="16"
           sodipodi:rx="2.5"
           sodipodi:ry="2.5"
           d="m 48.5,16 c 0,1.380712 -1.119288,2.5 -2.5,2.5 -1.380712,0 -2.5,-1.119288 -2.5,-2.5 0,-1.380712 1.119288,-2.5 2.5,-2.5 1.380712,0 2.5,1.119288 2.5,2.5 z" />
        <circle
           id="circle3373-3-9"
           style="fill:none;stroke:#000000;stroke-width:0.34999999;stroke-miterlimit:4;stroke-dasharray:none"
           r="2.5"
           cy="10"
           cx="40"
           sodipodi:cx="40"
           sodipodi:cy="10"
           sodipodi:rx="2.5"
           sodipodi:ry="2.5"
           d="m 42.5,10 c 0,1.380712 -1.119288,2.5 -2.5,2.5 -1.380712,0 -2.5,-1.119288 -2.5,-2.5 0,-1.3807119 1.119288,-2.5 2.5,-2.5 1.380712,0 2.5,1.1192881 2.5,2.5 z" />
        <circle
           id="circle3375-7-8"
           style="fill:none;stroke:#000000;stroke-width:0.34999999;stroke-miterlimit:4;stroke-dasharray:none"
           r="2.5"
           cy="10"
           cx="52"
           sodipodi:cx="52"
           sodipodi:cy="10"
           sodipodi:rx="2.5"
           sodipodi:ry="2.5"
           d="m 54.5,10 c 0,1.380712 -1.119288,2.5 -2.5,2.5 -1.380712,0 -2.5,-1.119288 -2.5,-2.5 0,-1.3807119 1.119288,-2.5 2.5,-2.5 1.380712,0 2.5,1.1192881 2.5,2.5 z" />
        <circle
           id="circle3377-7-9"
           style="fill:none;stroke:#000000;stroke-width:0.34999999;stroke-miterlimit:4;stroke-dasharray:none"
           r="2.5"
           cy="16"
           cx="58"
           sodipodi:cx="58"
           sodipodi:cy="16"
           sodipodi:rx="2.5"
           sodipodi:ry="2.5"
           d="m 60.5,16 c 0,1.380712 -1.119288,2.5 -2.5,2.5 -1.380712,0 -2.5,-1.119288 -2.5,-2.5 0,-1.380712 1.119288,-2.5 2.5,-2.5 1.380712,0 2.5,1.119288 2.5,2.5 z" />
        <circle
           id="circle3379-6-5"
           style="fill:none;stroke:#000000;stroke-width:0.34999999;stroke-miterlimit:4;stroke-dasharray:none"
           r="2.5"
           cy="10"
           cx="64"
           sodipodi:cx="64"
           sodipodi:cy="10"
           sodipodi:rx="2.5"
           sodipodi:ry="2.5"
           d="m 66.5,10 c 0,1.380712 -1.119288,2.5 -2.5,2.5 -1.380712,0 -2.5,-1.119288 -2.5,-2.5 0,-1.3807119 1.119288,-2.5 2.5,-2.5 1.380712,0 2.5,1.1192881 2.5,2.5 z" />
        <circle
           id="circle3381-1-4"
           style="fill:none;stroke:#000000;stroke-width:0.34999999;stroke-miterlimit:4;stroke-dasharray:none"
           r="2.5"
           cy="16"
           cx="70"
           sodipodi:cx="70"
           sodipodi:cy="16"
           sodipodi:rx="2.5"
           sodipodi:ry="2.5"
           d="m 72.5,16 c 0,1.380712 -1.119288,2.5 -2.5,2.5 -1.380712,0 -2.5,-1.119288 -2.5,-2.5 0,-1.380712 1.119288,-2.5 2.5,-2.5 1.380712,0 2.5,1.119288 2.5,2.5 z" />
        <circle
           id="circle3383-0-3"
           style="fill:none;stroke:#000000;stroke-width:0.34999999;stroke-miterlimit:4;stroke-dasharray:none"
           r="2.5"
           cy="10"
           cx="76"
           sodipodi:cx="76"
           sodipodi:cy="10"
           sodipodi:rx="2.5"
           sodipodi:ry="2.5"
           d="m 78.5,10 c 0,1.380712 -1.119288,2.5 -2.5,2.5 -1.380712,0 -2.5,-1.119288 -2.5,-2.5 0,-1.3807119 1.119288,-2.5 2.5,-2.5 1.380712,0 2.5,1.1192881 2.5,2.5 z" />
        <circle
           id="circle3385-6-8"
           style="fill:none;stroke:#000000;stroke-width:0.34999999;stroke-miterlimit:4;stroke-dasharray:none"
           r="2.5"
           cy="16"
           cx="82"
           sodipodi:cx="82"
           sodipodi:cy="16"
           sodipodi:rx="2.5"
           sodipodi:ry="2.5"
           d="m 84.5,16 c 0,1.380712 -1.119288,2.5 -2.5,2.5 -1.380712,0 -2.5,-1.119288 -2.5,-2.5 0,-1.380712 1.119288,-2.5 2.5,-2.5 1.380712,0 2.5,1.119288 2.5,2.5 z" />
        <circle
           id="circle3387-8-8"
           style="fill:none;stroke:#000000;stroke-width:0.34999999;stroke-miterlimit:4;stroke-dasharray:none"
           r="2.5"
           cy="10"
           cx="88"
           sodipodi:cx="88"
           sodipodi:cy="10"
           sodipodi:rx="2.5"
           sodipodi:ry="2.5"
           d="m 90.5,10 c 0,1.380712 -1.119288,2.5 -2.5,2.5 -1.380712,0 -2.5,-1.119288 -2.5,-2.5 0,-1.3807119 1.119288,-2.5 2.5,-2.5 1.380712,0 2.5,1.1192881 2.5,2.5 z" />
      </g>
      <g
         id="g3389-5-2"
         transform="matrix(1,0,0,-1,123.93,40.43)">
        <path
           style="fill:none;stroke:#000000;stroke-width:0.34999999;stroke-miterlimit:4;stroke-dasharray:none"
           d="m 87.5,38 0,-3 -25,0 0,3 -25,0 0,-3 -25,0 0,3 -25,0 0,-3 -25,0 0,3 -25,0 0,-3 -25,0 0,3 -25,0 0,-3 -9,0 10,-73 233,0 0,4.5 0,68.5 -9,0 0,3 -25,0"
           id="Sketch-5-1-8"
           inkscape:connector-curvature="0" />
        <circle
           id="circle3392-5-2"
           style="fill:none;stroke:#000000;stroke-width:0.34999999;stroke-miterlimit:4;stroke-dasharray:none"
           r="1.6"
           cy="-33.5"
           cx="-49"
           sodipodi:cx="-49"
           sodipodi:cy="-33.5"
           sodipodi:rx="1.6"
           sodipodi:ry="1.6"
           d="m -47.4,-33.5 c 0,0.883656 -0.716344,1.6 -1.6,1.6 -0.883656,0 -1.6,-0.716344 -1.6,-1.6 0,-0.883656 0.716344,-1.6 1.6,-1.6 0.883656,0 1.6,0.716344 1.6,1.6 z" />
        <circle
           id="circle3394-8-5"
           style="fill:none;stroke:#000000;stroke-width:0.34999999;stroke-miterlimit:4;stroke-dasharray:none"
           r="1.6"
           cy="-33.5"
           cx="56"
           sodipodi:cx="56"
           sodipodi:cy="-33.5"
           sodipodi:rx="1.6"
           sodipodi:ry="1.6"
           d="m 57.6,-33.5 c 0,0.883656 -0.716344,1.6 -1.6,1.6 -0.883656,0 -1.6,-0.716344 -1.6,-1.6 0,-0.883656 0.716344,-1.6 1.6,-1.6 0.883656,0 1.6,0.716344 1.6,1.6 z" />
      </g>
    </g>
    <g
       id="g3078-0"
       transform="matrix(3.5433071,0,0,-3.5433071,1048.3473,620.40412)">
      <path
         style="fill:none;stroke:#000000;stroke-width:0.34999999;stroke-miterlimit:4;stroke-dasharray:none"
         d="m -35,35 23.5,0 0,-3 23,0 0,3 23.5,0 0,-23.5 -3,0 0,-23 3,0 0,-23.5 -23.5,0 0,3 -23,0 0,-3 -23.5,0 0,23.5 3,0 0,23 -3,0 0,23.5"
         id="Sketch-9"
         inkscape:connector-curvature="0" />
      <circle
         id="circle3081-5"
         style="fill:none;stroke:#000000;stroke-width:0.34999999;stroke-miterlimit:4;stroke-dasharray:none"
         r="5.9000001"
         cy="-20"
         cx="-17.5"
         sodipodi:cx="-17.5"
         sodipodi:cy="-20"
         sodipodi:rx="5.9000001"
         sodipodi:ry="5.9000001"
         d="m -11.6,-20 c 0,3.25848 -2.64152,5.9 -5.9,5.9 -3.25848,0 -5.9,-2.64152 -5.9,-5.9 0,-3.25848 2.64152,-5.9 5.9,-5.9 3.25848,0 5.9,2.64152 5.9,5.9 z" />
      <circle
         id="circle3083-8"
         style="fill:none;stroke:#000000;stroke-width:0.34999999;stroke-miterlimit:4;stroke-dasharray:none"
         r="4"
         cy="1.110223e-15"
         cx="-17.5"
         sodipodi:cx="-17.5"
         sodipodi:cy="1.110223e-15"
         sodipodi:rx="4"
         sodipodi:ry="4"
         d="m -13.5,0 c 0,2.209139 -1.790861,4 -4,4 -2.209139,0 -4,-1.790861 -4,-4 0,-2.209139 1.790861,-4 4,-4 2.209139,0 4,1.790861 4,4 z" />
      <circle
         id="circle3085-3"
         style="fill:none;stroke:#000000;stroke-width:0.34999999;stroke-miterlimit:4;stroke-dasharray:none"
         r="4"
         cy="20"
         cx="-17.5"
         sodipodi:cx="-17.5"
         sodipodi:cy="20"
         sodipodi:rx="4"
         sodipodi:ry="4"
         d="m -13.5,20 c 0,2.209139 -1.790861,4 -4,4 -2.209139,0 -4,-1.790861 -4,-4 0,-2.209139 1.790861,-4 4,-4 2.209139,0 4,1.790861 4,4 z" />
      <circle
         id="circle3087-6"
         style="fill:none;stroke:#000000;stroke-width:0.34999999;stroke-miterlimit:4;stroke-dasharray:none"
         r="7.9000001"
         cy="15"
         cx="17.5"
         sodipodi:cx="17.5"
         sodipodi:cy="15"
         sodipodi:rx="7.9000001"
         sodipodi:ry="7.9000001"
         d="m 25.4,15 c 0,4.36305 -3.53695,7.9 -7.9,7.9 -4.36305,0 -7.9000001,-3.53695 -7.9000001,-7.9 0,-4.36305 3.5369501,-7.9000001 7.9000001,-7.9000001 4.36305,0 7.9,3.5369501 7.9,7.9000001 z" />
      <circle
         id="circle3089-5"
         style="fill:none;stroke:#000000;stroke-width:0.34999999;stroke-miterlimit:4;stroke-dasharray:none"
         r="7.9000001"
         cy="-15"
         cx="17.5"
         sodipodi:cx="17.5"
         sodipodi:cy="-15"
         sodipodi:rx="7.9000001"
         sodipodi:ry="7.9000001"
         d="m 25.4,-15 c 0,4.36305 -3.53695,7.9000001 -7.9,7.9000001 -4.36305,0 -7.9000001,-3.5369501 -7.9000001,-7.9000001 0,-4.36305 3.5369501,-7.9 7.9000001,-7.9 4.36305,0 7.9,3.53695 7.9,7.9 z" />
    </g>
    <g
       id="g3172-5"
       transform="matrix(3.5433068,0,0,-3.5433068,441.66483,45.269148)">
      <path
         style="fill:none;stroke:#000000;stroke-width:0.34999999;stroke-miterlimit:4;stroke-dasharray:none"
         d="m -112,35 0,-23.5 -3,0 0,-23 3,0 0,-23.5 20,0 0,3 25,0 0,-3 25,0 0,3 25,0 0,-3 34,0 0,3 25,0 0,-3 25,0 0,3 25,0 0,-3 20,0 0,23.5 3,0 0,23 -3,0 0,23.5 -20,0 0,-3 -25,0 0,3 -25,0 0,-3 -25,0 0,3 -34,0 0,-3 -25,0 0,3 -25,0 0,-3 -25,0 0,3 -20,0"
         id="Sketch-8-7"
         inkscape:connector-curvature="0" />
      <circle
         id="circle3175-8"
         style="fill:none;stroke:#000000;stroke-width:0.34999999;stroke-miterlimit:4;stroke-dasharray:none"
         r="2.0999999"
         cy="0"
         cx="23"
         sodipodi:cx="23"
         sodipodi:cy="0"
         sodipodi:rx="2.0999999"
         sodipodi:ry="2.0999999"
         d="m 25.1,0 c 0,1.1597979 -0.940202,2.0999999 -2.1,2.0999999 -1.159798,0 -2.1,-0.940202 -2.1,-2.0999999 0,-1.1597979 0.940202,-2.0999999 2.1,-2.0999999 1.159798,0 2.1,0.940202 2.1,2.0999999 z" />
      <circle
         id="circle3177-6"
         style="fill:none;stroke:#000000;stroke-width:0.34999999;stroke-miterlimit:4;stroke-dasharray:none"
         r="2.0999999"
         cy="0"
         cx="70"
         sodipodi:cx="70"
         sodipodi:cy="0"
         sodipodi:rx="2.0999999"
         sodipodi:ry="2.0999999"
         d="m 72.1,0 c 0,1.1597979 -0.940202,2.0999999 -2.1,2.0999999 -1.159798,0 -2.1,-0.940202 -2.1,-2.0999999 0,-1.1597979 0.940202,-2.0999999 2.1,-2.0999999 1.159798,0 2.1,0.940202 2.1,2.0999999 z" />
      <circle
         id="circle3179-6"
         style="fill:none;stroke:#000000;stroke-width:0.34999999;stroke-miterlimit:4;stroke-dasharray:none"
         r="5"
         cy="7.5"
         cx="-80"
         sodipodi:cx="-80"
         sodipodi:cy="7.5"
         sodipodi:rx="5"
         sodipodi:ry="5"
         d="m -75,7.5 c 0,2.761424 -2.238576,5 -5,5 -2.761424,0 -5,-2.238576 -5,-5 0,-2.7614237 2.238576,-5 5,-5 2.761424,0 5,2.2385763 5,5 z" />
      <circle
         id="circle3181-4"
         style="fill:none;stroke:#000000;stroke-width:0.34999999;stroke-miterlimit:4;stroke-dasharray:none"
         r="5"
         cy="7.5"
         cx="-65"
         sodipodi:cx="-65"
         sodipodi:cy="7.5"
         sodipodi:rx="5"
         sodipodi:ry="5"
         d="m -60,7.5 c 0,2.761424 -2.238576,5 -5,5 -2.761424,0 -5,-2.238576 -5,-5 0,-2.7614237 2.238576,-5 5,-5 2.761424,0 5,2.2385763 5,5 z" />
      <circle
         id="circle3183-0"
         style="fill:none;stroke:#000000;stroke-width:0.34999999;stroke-miterlimit:4;stroke-dasharray:none"
         r="5"
         cy="7.5"
         cx="-50"
         sodipodi:cx="-50"
         sodipodi:cy="7.5"
         sodipodi:rx="5"
         sodipodi:ry="5"
         d="m -45,7.5 c 0,2.761424 -2.238576,5 -5,5 -2.761424,0 -5,-2.238576 -5,-5 0,-2.7614237 2.238576,-5 5,-5 2.761424,0 5,2.2385763 5,5 z" />
      <circle
         id="circle3185-9"
         style="fill:none;stroke:#000000;stroke-width:0.34999999;stroke-miterlimit:4;stroke-dasharray:none"
         r="5"
         cy="7.5"
         cx="-35"
         sodipodi:cx="-35"
         sodipodi:cy="7.5"
         sodipodi:rx="5"
         sodipodi:ry="5"
         d="m -30,7.5 c 0,2.761424 -2.238576,5 -5,5 -2.761424,0 -5,-2.238576 -5,-5 0,-2.7614237 2.238576,-5 5,-5 2.761424,0 5,2.2385763 5,5 z" />
      <circle
         id="circle3187-6"
         style="fill:none;stroke:#000000;stroke-width:0.34999999;stroke-miterlimit:4;stroke-dasharray:none"
         r="5"
         cy="-7.5"
         cx="-80"
         sodipodi:cx="-80"
         sodipodi:cy="-7.5"
         sodipodi:rx="5"
         sodipodi:ry="5"
         d="m -75,-7.5 c 0,2.7614237 -2.238576,5 -5,5 -2.761424,0 -5,-2.2385763 -5,-5 0,-2.761424 2.238576,-5 5,-5 2.761424,0 5,2.238576 5,5 z" />
      <circle
         id="circle3189-0"
         style="fill:none;stroke:#000000;stroke-width:0.34999999;stroke-miterlimit:4;stroke-dasharray:none"
         r="5"
         cy="-7.5"
         cx="-65"
         sodipodi:cx="-65"
         sodipodi:cy="-7.5"
         sodipodi:rx="5"
         sodipodi:ry="5"
         d="m -60,-7.5 c 0,2.7614237 -2.238576,5 -5,5 -2.761424,0 -5,-2.2385763 -5,-5 0,-2.761424 2.238576,-5 5,-5 2.761424,0 5,2.238576 5,5 z" />
      <circle
         id="circle3191-7"
         style="fill:none;stroke:#000000;stroke-width:0.34999999;stroke-miterlimit:4;stroke-dasharray:none"
         r="5"
         cy="-7.5"
         cx="-50"
         sodipodi:cx="-50"
         sodipodi:cy="-7.5"
         sodipodi:rx="5"
         sodipodi:ry="5"
         d="m -45,-7.5 c 0,2.7614237 -2.238576,5 -5,5 -2.761424,0 -5,-2.2385763 -5,-5 0,-2.761424 2.238576,-5 5,-5 2.761424,0 5,2.238576 5,5 z" />
      <circle
         id="circle3193-9"
         style="fill:none;stroke:#000000;stroke-width:0.34999999;stroke-miterlimit:4;stroke-dasharray:none"
         r="5"
         cy="-7.5"
         cx="-35"
         sodipodi:cx="-35"
         sodipodi:cy="-7.5"
         sodipodi:rx="5"
         sodipodi:ry="5"
         d="m -30,-7.5 c 0,2.7614237 -2.238576,5 -5,5 -2.761424,0 -5,-2.2385763 -5,-5 0,-2.761424 2.238576,-5 5,-5 2.761424,0 5,2.238576 5,5 z" />
    </g>
    <g
       id="g3263-2"
       transform="matrix(3.5433071,0,0,-3.5433071,1043.4939,71.963182)">
      <path
         style="fill:none;stroke:#000000;stroke-width:0.34999999;stroke-miterlimit:4;stroke-dasharray:none"
         d="m -22,22 44,0 0,-44 -44,0 0,44"
         id="Sketch-2-5"
         inkscape:connector-curvature="0" />
      <path
         style="fill:none;stroke:#000000;stroke-width:0.34999999;stroke-miterlimit:4;stroke-dasharray:none"
         d="m -35,35 23.5,0 0,-3 23,0 0,3 23.5,0 0,-23.5 -3,0 0,-23 3,0 0,-23.5 -23.5,0 0,3 -23,0 0,-3 -23.5,0 0,23.5 3,0 0,23 -3,0 0,23.5"
         id="path3266-8"
         inkscape:connector-curvature="0" />
    </g>
    <g
       id="g3589-9-9"
       transform="matrix(0,3.5433069,3.5433069,0,1054.243,-214.39094)">
      <path
         style="fill:none;stroke:#000000;stroke-width:0.34999999;stroke-miterlimit:4;stroke-dasharray:none"
         d="m 11.5,3 0,-3 -23,0 0,3 -23.5,0 0,3 3,0 0,3 64,0 0,-3 3,0 0,-3 -23.5,0"
         id="Sketch-23-9-1"
         inkscape:connector-curvature="0" />
    </g>
    <g
       id="g3589-9-2"
       transform="matrix(0,3.5433069,3.5433069,0,1105.2043,-216.81768)">
      <path
         style="fill:none;stroke:#000000;stroke-width:0.34999999;stroke-miterlimit:4;stroke-dasharray:none"
         d="m 11.5,3 0,-3 -23,0 0,3 -23.5,0 0,3 3,0 0,3 64,0 0,-3 3,0 0,-3 -23.5,0"
         id="Sketch-23-9-8"
         inkscape:connector-curvature="0" />
    </g>
    <g
       id="g3530-9"
       transform="matrix(3.5433068,0,0,-3.5433068,441.86165,-102.66876)">
      <path
         style="fill:none;stroke:#000000;stroke-width:0.34999999;stroke-miterlimit:4;stroke-dasharray:none"
         d="m -112,23.5 -3,0 0,23 3,0 0,20.5 3,0 0,3 3,0 0,-3 3,-52.172221 A 3,3 0 0 1 -100.00495,12 l 200.0099,0 A 3,3 0 0 1 103,14.827779 L 106,67 l 0,3 3,0 0,-3 3,0 0,-20.5 3,0 0,-23 -3,0 L 112,3 90,3 90,0 65,0 65,3 40,3 40,0 15,0 l 0,3 -30,0 0,-3 -25,0 0,3 -25,0 0,-3 -25,0 0,3 -22,0 0,20.5"
         id="Sketch-37-6"
         inkscape:connector-curvature="0" />
    </g>
    <g
       id="g3530-1-6"
       transform="matrix(3.5433068,0,0,3.5433068,509.41655,-408.62193)">
      <path
         style="fill:none;stroke:#000000;stroke-width:0.34999999;stroke-miterlimit:4;stroke-dasharray:none"
         d="m -112,23.5 -3,0 0,23 3,0 0,20.5 3,0 0,3 3,0 0,-3 3,-52.172221 A 3,3 0 0 1 -100.00495,12 l 200.0099,0 A 3,3 0 0 1 103,14.827779 L 106,67 l 0,3 3,0 0,-3 3,0 0,-20.5 3,0 0,-23 -3,0 L 112,3 90,3 90,0 65,0 65,3 40,3 40,0 15,0 l 0,3 -30,0 0,-3 -25,0 0,3 -25,0 0,-3 -25,0 0,3 -22,0 0,20.5"
         id="Sketch-37-7-4"
         inkscape:connector-curvature="0" />
    </g>
  </g>
</svg>
