<?xml version="1.0" encoding="UTF-8" standalone="no"?>
<!-- Created with Inkscape (http://www.inkscape.org/) -->

<svg
   xmlns:dc="http://purl.org/dc/elements/1.1/"
   xmlns:cc="http://creativecommons.org/ns#"
   xmlns:rdf="http://www.w3.org/1999/02/22-rdf-syntax-ns#"
   xmlns:svg="http://www.w3.org/2000/svg"
   xmlns="http://www.w3.org/2000/svg"
   xmlns:sodipodi="http://sodipodi.sourceforge.net/DTD/sodipodi-0.dtd"
   xmlns:inkscape="http://www.inkscape.org/namespaces/inkscape"
   width="2161.4172"
   height="1417.3228"
   id="svg2"
   version="1.1"
   inkscape:version="0.48.5 r10040"
   sodipodi:docname="ASPIDBox2.svg">
  <defs
     id="defs4" />
  <sodipodi:namedview
     id="base"
     pagecolor="#ffffff"
     bordercolor="#666666"
     borderopacity="1.0"
     inkscape:pageopacity="0.0"
     inkscape:pageshadow="2"
     inkscape:zoom="0.34501669"
     inkscape:cx="1080.7086"
     inkscape:cy="650.79857"
     inkscape:document-units="mm"
     inkscape:current-layer="layer1"
     showgrid="true"
     units="mm"
     inkscape:window-width="1280"
     inkscape:window-height="698"
     inkscape:window-x="0"
     inkscape:window-y="31"
     inkscape:window-maximized="1">
    <inkscape:grid
       type="xygrid"
       id="grid3145"
       empspacing="5"
       visible="true"
       enabled="true"
       snapvisiblegridlinesonly="true" />
  </sodipodi:namedview>
  <metadata
     id="metadata7">
    <rdf:RDF>
      <cc:Work
         rdf:about="">
        <dc:format>image/svg+xml</dc:format>
        <dc:type
           rdf:resource="http://purl.org/dc/dcmitype/StillImage" />
        <dc:title />
      </cc:Work>
    </rdf:RDF>
  </metadata>
  <g
     inkscape:label="Layer 1"
     inkscape:groupmode="layer"
     id="layer1"
     transform="translate(0,364.96076)">
    <g
       id="g3530"
       transform="matrix(3.5433068,0,0,-3.5433068,1515.6559,14.976559)">
      <path
         style="fill:none;stroke:#000000;stroke-width:0.34999999;stroke-miterlimit:4;stroke-dasharray:none"
         d="m -112,23.5 -3,0 0,23 3,0 0,20.5 3,0 0,3 3,0 0,-3 3,-52.172221 A 3,3 0 0 1 -100.00495,12 l 200.0099,0 A 3,3 0 0 1 103,14.827779 L 106,67 l 0,3 3,0 0,-3 3,0 0,-20.5 3,0 0,-23 -3,0 L 112,3 90,3 90,0 65,0 65,3 40,3 40,0 15,0 l 0,3 -30,0 0,-3 -25,0 0,3 -25,0 0,-3 -25,0 0,3 -22,0 0,20.5"
         id="Sketch-37"
         inkscape:connector-curvature="0" />
    </g>
    <g
       id="g3530-1"
       transform="matrix(3.5433068,0,0,3.5433068,1583.2108,-288.97661)">
      <path
         style="fill:none;stroke:#000000;stroke-width:0.34999999;stroke-miterlimit:4;stroke-dasharray:none"
         d="m -112,23.5 -3,0 0,23 3,0 0,20.5 3,0 0,3 3,0 0,-3 3,-52.172221 A 3,3 0 0 1 -100.00495,12 l 200.0099,0 A 3,3 0 0 1 103,14.827779 L 106,67 l 0,3 3,0 0,-3 3,0 0,-20.5 3,0 0,-23 -3,0 L 112,3 90,3 90,0 65,0 65,3 40,3 40,0 15,0 l 0,3 -30,0 0,-3 -25,0 0,3 -25,0 0,-3 -25,0 0,3 -22,0 0,20.5"
         id="Sketch-37-7"
         inkscape:connector-curvature="0" />
    </g>
    <g
       id="g3530-9"
       transform="matrix(3.5433068,0,0,-3.5433068,573.86573,37.426123)">
      <path
         style="fill:none;stroke:#000000;stroke-width:0.34999999;stroke-miterlimit:4;stroke-dasharray:none"
         d="m -112,23.5 -3,0 0,23 3,0 0,20.5 3,0 0,3 3,0 0,-3 3,-52.172221 A 3,3 0 0 1 -100.00495,12 l 200.0099,0 A 3,3 0 0 1 103,14.827779 L 106,67 l 0,3 3,0 0,-3 3,0 0,-20.5 3,0 0,-23 -3,0 L 112,3 90,3 90,0 65,0 65,3 40,3 40,0 15,0 l 0,3 -30,0 0,-3 -25,0 0,3 -25,0 0,-3 -25,0 0,3 -22,0 0,20.5"
         id="Sketch-37-6"
         inkscape:connector-curvature="0" />
    </g>
    <g
       id="g3530-1-6"
       transform="matrix(3.5433068,0,0,3.5433068,659.42063,-272.52705)">
      <path
         style="fill:none;stroke:#000000;stroke-width:0.34999999;stroke-miterlimit:4;stroke-dasharray:none"
         d="m -112,23.5 -3,0 0,23 3,0 0,20.5 3,0 0,3 3,0 0,-3 3,-52.172221 A 3,3 0 0 1 -100.00495,12 l 200.0099,0 A 3,3 0 0 1 103,14.827779 L 106,67 l 0,3 3,0 0,-3 3,0 0,-20.5 3,0 0,-23 -3,0 L 112,3 90,3 90,0 65,0 65,3 40,3 40,0 15,0 l 0,3 -30,0 0,-3 -25,0 0,3 -25,0 0,-3 -25,0 0,3 -22,0 0,20.5"
         id="Sketch-37-7-4"
         inkscape:connector-curvature="0" />
    </g>
    <g
       id="g3530-7"
       transform="matrix(3.5433068,0,0,-3.5433068,1540.319,343.08679)">
      <path
         style="fill:none;stroke:#000000;stroke-width:0.34999999;stroke-miterlimit:4;stroke-dasharray:none"
         d="m -112,23.5 -3,0 0,23 3,0 0,20.5 3,0 0,3 3,0 0,-3 3,-52.172221 A 3,3 0 0 1 -100.00495,12 l 200.0099,0 A 3,3 0 0 1 103,14.827779 L 106,67 l 0,3 3,0 0,-3 3,0 0,-20.5 3,0 0,-23 -3,0 L 112,3 90,3 90,0 65,0 65,3 40,3 40,0 15,0 l 0,3 -30,0 0,-3 -25,0 0,3 -25,0 0,-3 -25,0 0,3 -22,0 0,20.5"
         id="Sketch-37-3"
         inkscape:connector-curvature="0" />
    </g>
    <g
       id="g3530-1-8"
       transform="matrix(3.5433068,0,0,3.5433068,1607.8739,39.133627)">
      <path
         style="fill:none;stroke:#000000;stroke-width:0.34999999;stroke-miterlimit:4;stroke-dasharray:none"
         d="m -112,23.5 -3,0 0,23 3,0 0,20.5 3,0 0,3 3,0 0,-3 3,-52.172221 A 3,3 0 0 1 -100.00495,12 l 200.0099,0 A 3,3 0 0 1 103,14.827779 L 106,67 l 0,3 3,0 0,-3 3,0 0,-20.5 3,0 0,-23 -3,0 L 112,3 90,3 90,0 65,0 65,3 40,3 40,0 15,0 l 0,3 -30,0 0,-3 -25,0 0,3 -25,0 0,-3 -25,0 0,3 -22,0 0,20.5"
         id="Sketch-37-7-8"
         inkscape:connector-curvature="0" />
    </g>
    <g
       id="g3530-9-5"
       transform="matrix(3.5433068,0,0,-3.5433068,598.52883,365.53635)">
      <path
         style="fill:none;stroke:#000000;stroke-width:0.34999999;stroke-miterlimit:4;stroke-dasharray:none"
         d="m -112,23.5 -3,0 0,23 3,0 0,20.5 3,0 0,3 3,0 0,-3 3,-52.172221 A 3,3 0 0 1 -100.00495,12 l 200.0099,0 A 3,3 0 0 1 103,14.827779 L 106,67 l 0,3 3,0 0,-3 3,0 0,-20.5 3,0 0,-23 -3,0 L 112,3 90,3 90,0 65,0 65,3 40,3 40,0 15,0 l 0,3 -30,0 0,-3 -25,0 0,3 -25,0 0,-3 -25,0 0,3 -22,0 0,20.5"
         id="Sketch-37-6-4"
         inkscape:connector-curvature="0" />
    </g>
    <g
       id="g3530-1-6-4"
       transform="matrix(3.5433068,0,0,3.5433068,684.08378,55.583188)">
      <path
         style="fill:none;stroke:#000000;stroke-width:0.34999999;stroke-miterlimit:4;stroke-dasharray:none"
         d="m -112,23.5 -3,0 0,23 3,0 0,20.5 3,0 0,3 3,0 0,-3 3,-52.172221 A 3,3 0 0 1 -100.00495,12 l 200.0099,0 A 3,3 0 0 1 103,14.827779 L 106,67 l 0,3 3,0 0,-3 3,0 0,-20.5 3,0 0,-23 -3,0 L 112,3 90,3 90,0 65,0 65,3 40,3 40,0 15,0 l 0,3 -30,0 0,-3 -25,0 0,3 -25,0 0,-3 -25,0 0,3 -22,0 0,20.5"
         id="Sketch-37-7-4-9"
         inkscape:connector-curvature="0" />
    </g>
    <g
       id="g4587"
       transform="matrix(3.5433068,0,0,-3.5433068,624.17312,523.14936)">
      <path
         style="fill:none;stroke:#000000;stroke-width:0.34999999;stroke-miterlimit:4;stroke-dasharray:none"
         d="m -112,35 0,-23.5 -3,0 0,-23 3,0 0,-23.5 22,0 0,3 25,0 0,-3 11,0 0,4.75 -1.25,0 0,2.5 1.25,0 0,4.75 3,0 0,-4.75 1.25,0 0,-2.5 -1.25,0 0,-4.75 11,0 0,3 25,0 0,-3 30,0 0,3 25,0 0,-3 11,0 0,4.75 -1.25,0 0,2.5 1.25,0 0,4.75 3,0 0,-4.75 1.25,0 0,-2.5 -1.25,0 0,-4.75 11,0 0,3 25,0 0,-3 22,0 0,23.5 3,0 0,23 -3,0 0,23.5 -22,0 0,-3 -25,0 0,3 -11,0 0,-6.75 1.25,0 0,-2.5 -1.25,0 0,-6.75 -3,0 0,6.75 -1.25,0 0,2.5 1.25,0 0,6.75 -11,0 0,-3 -25,0 0,3 -30,0 0,-3 -25,0 0,3 -11,0 0,-4.75 1.25,0 0,-2.5 -1.25,0 0,-4.75 -3,0 0,4.75 -1.25,0 0,2.5 1.25,0 0,4.75 -11,0 0,-3 -25,0 0,3 -22,0"
         id="Sketch"
         inkscape:connector-curvature="0" />
      <circle
         id="circle4590"
         style="fill:none;stroke:#000000;stroke-width:0.34999999;stroke-miterlimit:4;stroke-dasharray:none"
         r="2.0999999"
         cy="0"
         cx="23"
         sodipodi:cx="23"
         sodipodi:cy="0"
         sodipodi:rx="2.0999999"
         sodipodi:ry="2.0999999"
         d="m 25.1,0 c 0,1.1597979 -0.940202,2.0999999 -2.1,2.0999999 -1.159798,0 -2.1,-0.940202 -2.1,-2.0999999 0,-1.1597979 0.940202,-2.0999999 2.1,-2.0999999 1.159798,0 2.1,0.940202 2.1,2.0999999 z" />
      <circle
         id="circle4592"
         style="fill:none;stroke:#000000;stroke-width:0.34999999;stroke-miterlimit:4;stroke-dasharray:none"
         r="2.0999999"
         cy="0"
         cx="70"
         sodipodi:cx="70"
         sodipodi:cy="0"
         sodipodi:rx="2.0999999"
         sodipodi:ry="2.0999999"
         d="m 72.1,0 c 0,1.1597979 -0.940202,2.0999999 -2.1,2.0999999 -1.159798,0 -2.1,-0.940202 -2.1,-2.0999999 0,-1.1597979 0.940202,-2.0999999 2.1,-2.0999999 1.159798,0 2.1,0.940202 2.1,2.0999999 z" />
      <circle
         id="circle4594"
         style="fill:none;stroke:#000000;stroke-width:0.34999999;stroke-miterlimit:4;stroke-dasharray:none"
         r="5"
         cy="7.5"
         cx="-80"
         sodipodi:cx="-80"
         sodipodi:cy="7.5"
         sodipodi:rx="5"
         sodipodi:ry="5"
         d="m -75,7.5 c 0,2.761424 -2.238576,5 -5,5 -2.761424,0 -5,-2.238576 -5,-5 0,-2.7614237 2.238576,-5 5,-5 2.761424,0 5,2.2385763 5,5 z" />
      <circle
         id="circle4596"
         style="fill:none;stroke:#000000;stroke-width:0.34999999;stroke-miterlimit:4;stroke-dasharray:none"
         r="5"
         cy="7.5"
         cx="-65"
         sodipodi:cx="-65"
         sodipodi:cy="7.5"
         sodipodi:rx="5"
         sodipodi:ry="5"
         d="m -60,7.5 c 0,2.761424 -2.238576,5 -5,5 -2.761424,0 -5,-2.238576 -5,-5 0,-2.7614237 2.238576,-5 5,-5 2.761424,0 5,2.2385763 5,5 z" />
      <circle
         id="circle4598"
         style="fill:none;stroke:#000000;stroke-width:0.34999999;stroke-miterlimit:4;stroke-dasharray:none"
         r="5"
         cy="7.5"
         cx="-50"
         sodipodi:cx="-50"
         sodipodi:cy="7.5"
         sodipodi:rx="5"
         sodipodi:ry="5"
         d="m -45,7.5 c 0,2.761424 -2.238576,5 -5,5 -2.761424,0 -5,-2.238576 -5,-5 0,-2.7614237 2.238576,-5 5,-5 2.761424,0 5,2.2385763 5,5 z" />
      <circle
         id="circle4600"
         style="fill:none;stroke:#000000;stroke-width:0.34999999;stroke-miterlimit:4;stroke-dasharray:none"
         r="5"
         cy="7.5"
         cx="-35"
         sodipodi:cx="-35"
         sodipodi:cy="7.5"
         sodipodi:rx="5"
         sodipodi:ry="5"
         d="m -30,7.5 c 0,2.761424 -2.238576,5 -5,5 -2.761424,0 -5,-2.238576 -5,-5 0,-2.7614237 2.238576,-5 5,-5 2.761424,0 5,2.2385763 5,5 z" />
      <circle
         id="circle4602"
         style="fill:none;stroke:#000000;stroke-width:0.34999999;stroke-miterlimit:4;stroke-dasharray:none"
         r="5"
         cy="-7.5"
         cx="-80"
         sodipodi:cx="-80"
         sodipodi:cy="-7.5"
         sodipodi:rx="5"
         sodipodi:ry="5"
         d="m -75,-7.5 c 0,2.7614237 -2.238576,5 -5,5 -2.761424,0 -5,-2.2385763 -5,-5 0,-2.761424 2.238576,-5 5,-5 2.761424,0 5,2.238576 5,5 z" />
      <circle
         id="circle4604"
         style="fill:none;stroke:#000000;stroke-width:0.34999999;stroke-miterlimit:4;stroke-dasharray:none"
         r="5"
         cy="-7.5"
         cx="-65"
         sodipodi:cx="-65"
         sodipodi:cy="-7.5"
         sodipodi:rx="5"
         sodipodi:ry="5"
         d="m -60,-7.5 c 0,2.7614237 -2.238576,5 -5,5 -2.761424,0 -5,-2.2385763 -5,-5 0,-2.761424 2.238576,-5 5,-5 2.761424,0 5,2.238576 5,5 z" />
      <circle
         id="circle4606"
         style="fill:none;stroke:#000000;stroke-width:0.34999999;stroke-miterlimit:4;stroke-dasharray:none"
         r="5"
         cy="-7.5"
         cx="-50"
         sodipodi:cx="-50"
         sodipodi:cy="-7.5"
         sodipodi:rx="5"
         sodipodi:ry="5"
         d="m -45,-7.5 c 0,2.7614237 -2.238576,5 -5,5 -2.761424,0 -5,-2.2385763 -5,-5 0,-2.761424 2.238576,-5 5,-5 2.761424,0 5,2.238576 5,5 z" />
      <circle
         id="circle4608"
         style="fill:none;stroke:#000000;stroke-width:0.34999999;stroke-miterlimit:4;stroke-dasharray:none"
         r="5"
         cy="-7.5"
         cx="-35"
         sodipodi:cx="-35"
         sodipodi:cy="-7.5"
         sodipodi:rx="5"
         sodipodi:ry="5"
         d="m -30,-7.5 c 0,2.7614237 -2.238576,5 -5,5 -2.761424,0 -5,-2.2385763 -5,-5 0,-2.761424 2.238576,-5 5,-5 2.761424,0 5,2.238576 5,5 z" />
    </g>
    <g
       id="g4587-7"
       transform="matrix(3.5433068,0,0,-3.5433068,1477.8739,525.74781)">
      <path
         style="fill:none;stroke:#000000;stroke-width:0.34999999;stroke-miterlimit:4;stroke-dasharray:none"
         d="m -112,35 0,-23.5 -3,0 0,-23 3,0 0,-23.5 22,0 0,3 25,0 0,-3 11,0 0,4.75 -1.25,0 0,2.5 1.25,0 0,4.75 3,0 0,-4.75 1.25,0 0,-2.5 -1.25,0 0,-4.75 11,0 0,3 25,0 0,-3 30,0 0,3 25,0 0,-3 11,0 0,4.75 -1.25,0 0,2.5 1.25,0 0,4.75 3,0 0,-4.75 1.25,0 0,-2.5 -1.25,0 0,-4.75 11,0 0,3 25,0 0,-3 22,0 0,23.5 3,0 0,23 -3,0 0,23.5 -22,0 0,-3 -25,0 0,3 -11,0 0,-6.75 1.25,0 0,-2.5 -1.25,0 0,-6.75 -3,0 0,6.75 -1.25,0 0,2.5 1.25,0 0,6.75 -11,0 0,-3 -25,0 0,3 -30,0 0,-3 -25,0 0,3 -11,0 0,-4.75 1.25,0 0,-2.5 -1.25,0 0,-4.75 -3,0 0,4.75 -1.25,0 0,2.5 1.25,0 0,4.75 -11,0 0,-3 -25,0 0,3 -22,0"
         id="Sketch-3"
         inkscape:connector-curvature="0" />
      <circle
         id="circle4590-8"
         style="fill:none;stroke:#000000;stroke-width:0.34999999;stroke-miterlimit:4;stroke-dasharray:none"
         r="2.0999999"
         cy="0"
         cx="23"
         sodipodi:cx="23"
         sodipodi:cy="0"
         sodipodi:rx="2.0999999"
         sodipodi:ry="2.0999999"
         d="m 25.1,0 c 0,1.1597979 -0.940202,2.0999999 -2.1,2.0999999 -1.159798,0 -2.1,-0.940202 -2.1,-2.0999999 0,-1.1597979 0.940202,-2.0999999 2.1,-2.0999999 1.159798,0 2.1,0.940202 2.1,2.0999999 z" />
      <circle
         id="circle4592-1"
         style="fill:none;stroke:#000000;stroke-width:0.34999999;stroke-miterlimit:4;stroke-dasharray:none"
         r="2.0999999"
         cy="0"
         cx="70"
         sodipodi:cx="70"
         sodipodi:cy="0"
         sodipodi:rx="2.0999999"
         sodipodi:ry="2.0999999"
         d="m 72.1,0 c 0,1.1597979 -0.940202,2.0999999 -2.1,2.0999999 -1.159798,0 -2.1,-0.940202 -2.1,-2.0999999 0,-1.1597979 0.940202,-2.0999999 2.1,-2.0999999 1.159798,0 2.1,0.940202 2.1,2.0999999 z" />
      <circle
         id="circle4594-3"
         style="fill:none;stroke:#000000;stroke-width:0.34999999;stroke-miterlimit:4;stroke-dasharray:none"
         r="5"
         cy="7.5"
         cx="-80"
         sodipodi:cx="-80"
         sodipodi:cy="7.5"
         sodipodi:rx="5"
         sodipodi:ry="5"
         d="m -75,7.5 c 0,2.761424 -2.238576,5 -5,5 -2.761424,0 -5,-2.238576 -5,-5 0,-2.7614237 2.238576,-5 5,-5 2.761424,0 5,2.2385763 5,5 z" />
      <circle
         id="circle4596-1"
         style="fill:none;stroke:#000000;stroke-width:0.34999999;stroke-miterlimit:4;stroke-dasharray:none"
         r="5"
         cy="7.5"
         cx="-65"
         sodipodi:cx="-65"
         sodipodi:cy="7.5"
         sodipodi:rx="5"
         sodipodi:ry="5"
         d="m -60,7.5 c 0,2.761424 -2.238576,5 -5,5 -2.761424,0 -5,-2.238576 -5,-5 0,-2.7614237 2.238576,-5 5,-5 2.761424,0 5,2.2385763 5,5 z" />
      <circle
         id="circle4598-6"
         style="fill:none;stroke:#000000;stroke-width:0.34999999;stroke-miterlimit:4;stroke-dasharray:none"
         r="5"
         cy="7.5"
         cx="-50"
         sodipodi:cx="-50"
         sodipodi:cy="7.5"
         sodipodi:rx="5"
         sodipodi:ry="5"
         d="m -45,7.5 c 0,2.761424 -2.238576,5 -5,5 -2.761424,0 -5,-2.238576 -5,-5 0,-2.7614237 2.238576,-5 5,-5 2.761424,0 5,2.2385763 5,5 z" />
      <circle
         id="circle4600-3"
         style="fill:none;stroke:#000000;stroke-width:0.34999999;stroke-miterlimit:4;stroke-dasharray:none"
         r="5"
         cy="7.5"
         cx="-35"
         sodipodi:cx="-35"
         sodipodi:cy="7.5"
         sodipodi:rx="5"
         sodipodi:ry="5"
         d="m -30,7.5 c 0,2.761424 -2.238576,5 -5,5 -2.761424,0 -5,-2.238576 -5,-5 0,-2.7614237 2.238576,-5 5,-5 2.761424,0 5,2.2385763 5,5 z" />
      <circle
         id="circle4602-4"
         style="fill:none;stroke:#000000;stroke-width:0.34999999;stroke-miterlimit:4;stroke-dasharray:none"
         r="5"
         cy="-7.5"
         cx="-80"
         sodipodi:cx="-80"
         sodipodi:cy="-7.5"
         sodipodi:rx="5"
         sodipodi:ry="5"
         d="m -75,-7.5 c 0,2.7614237 -2.238576,5 -5,5 -2.761424,0 -5,-2.2385763 -5,-5 0,-2.761424 2.238576,-5 5,-5 2.761424,0 5,2.238576 5,5 z" />
      <circle
         id="circle4604-6"
         style="fill:none;stroke:#000000;stroke-width:0.34999999;stroke-miterlimit:4;stroke-dasharray:none"
         r="5"
         cy="-7.5"
         cx="-65"
         sodipodi:cx="-65"
         sodipodi:cy="-7.5"
         sodipodi:rx="5"
         sodipodi:ry="5"
         d="m -60,-7.5 c 0,2.7614237 -2.238576,5 -5,5 -2.761424,0 -5,-2.2385763 -5,-5 0,-2.761424 2.238576,-5 5,-5 2.761424,0 5,2.238576 5,5 z" />
      <circle
         id="circle4606-7"
         style="fill:none;stroke:#000000;stroke-width:0.34999999;stroke-miterlimit:4;stroke-dasharray:none"
         r="5"
         cy="-7.5"
         cx="-50"
         sodipodi:cx="-50"
         sodipodi:cy="-7.5"
         sodipodi:rx="5"
         sodipodi:ry="5"
         d="m -45,-7.5 c 0,2.7614237 -2.238576,5 -5,5 -2.761424,0 -5,-2.2385763 -5,-5 0,-2.761424 2.238576,-5 5,-5 2.761424,0 5,2.238576 5,5 z" />
      <circle
         id="circle4608-2"
         style="fill:none;stroke:#000000;stroke-width:0.34999999;stroke-miterlimit:4;stroke-dasharray:none"
         r="5"
         cy="-7.5"
         cx="-35"
         sodipodi:cx="-35"
         sodipodi:cy="-7.5"
         sodipodi:rx="5"
         sodipodi:ry="5"
         d="m -30,-7.5 c 0,2.7614237 -2.238576,5 -5,5 -2.761424,0 -5,-2.2385763 -5,-5 0,-2.761424 2.238576,-5 5,-5 2.761424,0 5,2.238576 5,5 z" />
    </g>
    <g
       id="g4587-4"
       transform="matrix(3.5433068,0,0,-3.5433068,629.29125,816.37773)">
      <path
         style="fill:none;stroke:#000000;stroke-width:0.34999999;stroke-miterlimit:4;stroke-dasharray:none"
         d="m -112,35 0,-23.5 -3,0 0,-23 3,0 0,-23.5 22,0 0,3 25,0 0,-3 11,0 0,4.75 -1.25,0 0,2.5 1.25,0 0,4.75 3,0 0,-4.75 1.25,0 0,-2.5 -1.25,0 0,-4.75 11,0 0,3 25,0 0,-3 30,0 0,3 25,0 0,-3 11,0 0,4.75 -1.25,0 0,2.5 1.25,0 0,4.75 3,0 0,-4.75 1.25,0 0,-2.5 -1.25,0 0,-4.75 11,0 0,3 25,0 0,-3 22,0 0,23.5 3,0 0,23 -3,0 0,23.5 -22,0 0,-3 -25,0 0,3 -11,0 0,-6.75 1.25,0 0,-2.5 -1.25,0 0,-6.75 -3,0 0,6.75 -1.25,0 0,2.5 1.25,0 0,6.75 -11,0 0,-3 -25,0 0,3 -30,0 0,-3 -25,0 0,3 -11,0 0,-4.75 1.25,0 0,-2.5 -1.25,0 0,-4.75 -3,0 0,4.75 -1.25,0 0,2.5 1.25,0 0,4.75 -11,0 0,-3 -25,0 0,3 -22,0"
         id="Sketch-6"
         inkscape:connector-curvature="0" />
      <circle
         id="circle4590-7"
         style="fill:none;stroke:#000000;stroke-width:0.34999999;stroke-miterlimit:4;stroke-dasharray:none"
         r="2.0999999"
         cy="0"
         cx="23"
         sodipodi:cx="23"
         sodipodi:cy="0"
         sodipodi:rx="2.0999999"
         sodipodi:ry="2.0999999"
         d="m 25.1,0 c 0,1.1597979 -0.940202,2.0999999 -2.1,2.0999999 -1.159798,0 -2.1,-0.940202 -2.1,-2.0999999 0,-1.1597979 0.940202,-2.0999999 2.1,-2.0999999 1.159798,0 2.1,0.940202 2.1,2.0999999 z" />
      <circle
         id="circle4592-7"
         style="fill:none;stroke:#000000;stroke-width:0.34999999;stroke-miterlimit:4;stroke-dasharray:none"
         r="2.0999999"
         cy="0"
         cx="70"
         sodipodi:cx="70"
         sodipodi:cy="0"
         sodipodi:rx="2.0999999"
         sodipodi:ry="2.0999999"
         d="m 72.1,0 c 0,1.1597979 -0.940202,2.0999999 -2.1,2.0999999 -1.159798,0 -2.1,-0.940202 -2.1,-2.0999999 0,-1.1597979 0.940202,-2.0999999 2.1,-2.0999999 1.159798,0 2.1,0.940202 2.1,2.0999999 z" />
      <circle
         id="circle4594-8"
         style="fill:none;stroke:#000000;stroke-width:0.34999999;stroke-miterlimit:4;stroke-dasharray:none"
         r="5"
         cy="7.5"
         cx="-80"
         sodipodi:cx="-80"
         sodipodi:cy="7.5"
         sodipodi:rx="5"
         sodipodi:ry="5"
         d="m -75,7.5 c 0,2.761424 -2.238576,5 -5,5 -2.761424,0 -5,-2.238576 -5,-5 0,-2.7614237 2.238576,-5 5,-5 2.761424,0 5,2.2385763 5,5 z" />
      <circle
         id="circle4596-6"
         style="fill:none;stroke:#000000;stroke-width:0.34999999;stroke-miterlimit:4;stroke-dasharray:none"
         r="5"
         cy="7.5"
         cx="-65"
         sodipodi:cx="-65"
         sodipodi:cy="7.5"
         sodipodi:rx="5"
         sodipodi:ry="5"
         d="m -60,7.5 c 0,2.761424 -2.238576,5 -5,5 -2.761424,0 -5,-2.238576 -5,-5 0,-2.7614237 2.238576,-5 5,-5 2.761424,0 5,2.2385763 5,5 z" />
      <circle
         id="circle4598-7"
         style="fill:none;stroke:#000000;stroke-width:0.34999999;stroke-miterlimit:4;stroke-dasharray:none"
         r="5"
         cy="7.5"
         cx="-50"
         sodipodi:cx="-50"
         sodipodi:cy="7.5"
         sodipodi:rx="5"
         sodipodi:ry="5"
         d="m -45,7.5 c 0,2.761424 -2.238576,5 -5,5 -2.761424,0 -5,-2.238576 -5,-5 0,-2.7614237 2.238576,-5 5,-5 2.761424,0 5,2.2385763 5,5 z" />
      <circle
         id="circle4600-4"
         style="fill:none;stroke:#000000;stroke-width:0.34999999;stroke-miterlimit:4;stroke-dasharray:none"
         r="5"
         cy="7.5"
         cx="-35"
         sodipodi:cx="-35"
         sodipodi:cy="7.5"
         sodipodi:rx="5"
         sodipodi:ry="5"
         d="m -30,7.5 c 0,2.761424 -2.238576,5 -5,5 -2.761424,0 -5,-2.238576 -5,-5 0,-2.7614237 2.238576,-5 5,-5 2.761424,0 5,2.2385763 5,5 z" />
      <circle
         id="circle4602-2"
         style="fill:none;stroke:#000000;stroke-width:0.34999999;stroke-miterlimit:4;stroke-dasharray:none"
         r="5"
         cy="-7.5"
         cx="-80"
         sodipodi:cx="-80"
         sodipodi:cy="-7.5"
         sodipodi:rx="5"
         sodipodi:ry="5"
         d="m -75,-7.5 c 0,2.7614237 -2.238576,5 -5,5 -2.761424,0 -5,-2.2385763 -5,-5 0,-2.761424 2.238576,-5 5,-5 2.761424,0 5,2.238576 5,5 z" />
      <circle
         id="circle4604-0"
         style="fill:none;stroke:#000000;stroke-width:0.34999999;stroke-miterlimit:4;stroke-dasharray:none"
         r="5"
         cy="-7.5"
         cx="-65"
         sodipodi:cx="-65"
         sodipodi:cy="-7.5"
         sodipodi:rx="5"
         sodipodi:ry="5"
         d="m -60,-7.5 c 0,2.7614237 -2.238576,5 -5,5 -2.761424,0 -5,-2.2385763 -5,-5 0,-2.761424 2.238576,-5 5,-5 2.761424,0 5,2.238576 5,5 z" />
      <circle
         id="circle4606-8"
         style="fill:none;stroke:#000000;stroke-width:0.34999999;stroke-miterlimit:4;stroke-dasharray:none"
         r="5"
         cy="-7.5"
         cx="-50"
         sodipodi:cx="-50"
         sodipodi:cy="-7.5"
         sodipodi:rx="5"
         sodipodi:ry="5"
         d="m -45,-7.5 c 0,2.7614237 -2.238576,5 -5,5 -2.761424,0 -5,-2.2385763 -5,-5 0,-2.761424 2.238576,-5 5,-5 2.761424,0 5,2.238576 5,5 z" />
      <circle
         id="circle4608-27"
         style="fill:none;stroke:#000000;stroke-width:0.34999999;stroke-miterlimit:4;stroke-dasharray:none"
         r="5"
         cy="-7.5"
         cx="-35"
         sodipodi:cx="-35"
         sodipodi:cy="-7.5"
         sodipodi:rx="5"
         sodipodi:ry="5"
         d="m -30,-7.5 c 0,2.7614237 -2.238576,5 -5,5 -2.761424,0 -5,-2.2385763 -5,-5 0,-2.761424 2.238576,-5 5,-5 2.761424,0 5,2.238576 5,5 z" />
    </g>
    <g
       id="g4587-0"
       transform="matrix(3.5433068,0,0,-3.5433068,1500.7086,816.37773)">
      <path
         style="fill:none;stroke:#000000;stroke-width:0.34999999;stroke-miterlimit:4;stroke-dasharray:none"
         d="m -112,35 0,-23.5 -3,0 0,-23 3,0 0,-23.5 22,0 0,3 25,0 0,-3 11,0 0,4.75 -1.25,0 0,2.5 1.25,0 0,4.75 3,0 0,-4.75 1.25,0 0,-2.5 -1.25,0 0,-4.75 11,0 0,3 25,0 0,-3 30,0 0,3 25,0 0,-3 11,0 0,4.75 -1.25,0 0,2.5 1.25,0 0,4.75 3,0 0,-4.75 1.25,0 0,-2.5 -1.25,0 0,-4.75 11,0 0,3 25,0 0,-3 22,0 0,23.5 3,0 0,23 -3,0 0,23.5 -22,0 0,-3 -25,0 0,3 -11,0 0,-6.75 1.25,0 0,-2.5 -1.25,0 0,-6.75 -3,0 0,6.75 -1.25,0 0,2.5 1.25,0 0,6.75 -11,0 0,-3 -25,0 0,3 -30,0 0,-3 -25,0 0,3 -11,0 0,-4.75 1.25,0 0,-2.5 -1.25,0 0,-4.75 -3,0 0,4.75 -1.25,0 0,2.5 1.25,0 0,4.75 -11,0 0,-3 -25,0 0,3 -22,0"
         id="Sketch-60"
         inkscape:connector-curvature="0" />
      <circle
         id="circle4590-0"
         style="fill:none;stroke:#000000;stroke-width:0.34999999;stroke-miterlimit:4;stroke-dasharray:none"
         r="2.0999999"
         cy="0"
         cx="23"
         sodipodi:cx="23"
         sodipodi:cy="0"
         sodipodi:rx="2.0999999"
         sodipodi:ry="2.0999999"
         d="m 25.1,0 c 0,1.1597979 -0.940202,2.0999999 -2.1,2.0999999 -1.159798,0 -2.1,-0.940202 -2.1,-2.0999999 0,-1.1597979 0.940202,-2.0999999 2.1,-2.0999999 1.159798,0 2.1,0.940202 2.1,2.0999999 z" />
      <circle
         id="circle4592-73"
         style="fill:none;stroke:#000000;stroke-width:0.34999999;stroke-miterlimit:4;stroke-dasharray:none"
         r="2.0999999"
         cy="0"
         cx="70"
         sodipodi:cx="70"
         sodipodi:cy="0"
         sodipodi:rx="2.0999999"
         sodipodi:ry="2.0999999"
         d="m 72.1,0 c 0,1.1597979 -0.940202,2.0999999 -2.1,2.0999999 -1.159798,0 -2.1,-0.940202 -2.1,-2.0999999 0,-1.1597979 0.940202,-2.0999999 2.1,-2.0999999 1.159798,0 2.1,0.940202 2.1,2.0999999 z" />
      <circle
         id="circle4594-9"
         style="fill:none;stroke:#000000;stroke-width:0.34999999;stroke-miterlimit:4;stroke-dasharray:none"
         r="5"
         cy="7.5"
         cx="-80"
         sodipodi:cx="-80"
         sodipodi:cy="7.5"
         sodipodi:rx="5"
         sodipodi:ry="5"
         d="m -75,7.5 c 0,2.761424 -2.238576,5 -5,5 -2.761424,0 -5,-2.238576 -5,-5 0,-2.7614237 2.238576,-5 5,-5 2.761424,0 5,2.2385763 5,5 z" />
      <circle
         id="circle4596-13"
         style="fill:none;stroke:#000000;stroke-width:0.34999999;stroke-miterlimit:4;stroke-dasharray:none"
         r="5"
         cy="7.5"
         cx="-65"
         sodipodi:cx="-65"
         sodipodi:cy="7.5"
         sodipodi:rx="5"
         sodipodi:ry="5"
         d="m -60,7.5 c 0,2.761424 -2.238576,5 -5,5 -2.761424,0 -5,-2.238576 -5,-5 0,-2.7614237 2.238576,-5 5,-5 2.761424,0 5,2.2385763 5,5 z" />
      <circle
         id="circle4598-2"
         style="fill:none;stroke:#000000;stroke-width:0.34999999;stroke-miterlimit:4;stroke-dasharray:none"
         r="5"
         cy="7.5"
         cx="-50"
         sodipodi:cx="-50"
         sodipodi:cy="7.5"
         sodipodi:rx="5"
         sodipodi:ry="5"
         d="m -45,7.5 c 0,2.761424 -2.238576,5 -5,5 -2.761424,0 -5,-2.238576 -5,-5 0,-2.7614237 2.238576,-5 5,-5 2.761424,0 5,2.2385763 5,5 z" />
      <circle
         id="circle4600-6"
         style="fill:none;stroke:#000000;stroke-width:0.34999999;stroke-miterlimit:4;stroke-dasharray:none"
         r="5"
         cy="7.5"
         cx="-35"
         sodipodi:cx="-35"
         sodipodi:cy="7.5"
         sodipodi:rx="5"
         sodipodi:ry="5"
         d="m -30,7.5 c 0,2.761424 -2.238576,5 -5,5 -2.761424,0 -5,-2.238576 -5,-5 0,-2.7614237 2.238576,-5 5,-5 2.761424,0 5,2.2385763 5,5 z" />
      <circle
         id="circle4602-6"
         style="fill:none;stroke:#000000;stroke-width:0.34999999;stroke-miterlimit:4;stroke-dasharray:none"
         r="5"
         cy="-7.5"
         cx="-80"
         sodipodi:cx="-80"
         sodipodi:cy="-7.5"
         sodipodi:rx="5"
         sodipodi:ry="5"
         d="m -75,-7.5 c 0,2.7614237 -2.238576,5 -5,5 -2.761424,0 -5,-2.2385763 -5,-5 0,-2.761424 2.238576,-5 5,-5 2.761424,0 5,2.238576 5,5 z" />
      <circle
         id="circle4604-8"
         style="fill:none;stroke:#000000;stroke-width:0.34999999;stroke-miterlimit:4;stroke-dasharray:none"
         r="5"
         cy="-7.5"
         cx="-65"
         sodipodi:cx="-65"
         sodipodi:cy="-7.5"
         sodipodi:rx="5"
         sodipodi:ry="5"
         d="m -60,-7.5 c 0,2.7614237 -2.238576,5 -5,5 -2.761424,0 -5,-2.2385763 -5,-5 0,-2.761424 2.238576,-5 5,-5 2.761424,0 5,2.238576 5,5 z" />
      <circle
         id="circle4606-9"
         style="fill:none;stroke:#000000;stroke-width:0.34999999;stroke-miterlimit:4;stroke-dasharray:none"
         r="5"
         cy="-7.5"
         cx="-50"
         sodipodi:cx="-50"
         sodipodi:cy="-7.5"
         sodipodi:rx="5"
         sodipodi:ry="5"
         d="m -45,-7.5 c 0,2.7614237 -2.238576,5 -5,5 -2.761424,0 -5,-2.2385763 -5,-5 0,-2.761424 2.238576,-5 5,-5 2.761424,0 5,2.238576 5,5 z" />
      <circle
         id="circle4608-279"
         style="fill:none;stroke:#000000;stroke-width:0.34999999;stroke-miterlimit:4;stroke-dasharray:none"
         r="5"
         cy="-7.5"
         cx="-35"
         sodipodi:cx="-35"
         sodipodi:cy="-7.5"
         sodipodi:rx="5"
         sodipodi:ry="5"
         d="m -30,-7.5 c 0,2.7614237 -2.238576,5 -5,5 -2.761424,0 -5,-2.2385763 -5,-5 0,-2.761424 2.238576,-5 5,-5 2.761424,0 5,2.238576 5,5 z" />
    </g>
  </g>
</svg>
