<?xml version="1.0"?>
<!DOCTYPE svg PUBLIC "-//W3C//DTD SVG 1.1//EN" "http://www.w3.org/Graphics/SVG/1.1/DTD/svg11.dtd">
<svg width="247.86mm" height="80.86mm" viewBox="0 0 247.86 80.86" xmlns="http://www.w3.org/2000/svg" version="1.1">
<g transform="translate(123.93,40.43) scale(1,-1)">
<path id="Sketch" d="M -121.5 38.0 L -112.5 38.0 L -112.5 35.0 L -87.5 35.0 L -87.5 38.0 L -62.5 38.0 L -62.5 35.0 L -37.5 35.0 L -37.5 38.0 L -12.5 38.0 L -12.5 35.0 L 12.5 35.0 L 12.5 38.0 L 37.5 38.0 L 37.5 35.0 L 62.5 35.0 L 62.5 38.0 L 87.5 38.0 L 87.5 35.0 L 112.5 35.0 L 112.5 38.0 L 121.5 38.0 L 121.5 -38.0 L 112.5 -38.0 L 112.5 -35.0 L 87.5 -35.0 L 87.5 -38.0 L 62.5 -38.0 L 62.5 -35.0 L 37.5 -35.0 L 37.5 -38.0 L 12.5 -38.0 L 12.5 -35.0 L -12.5 -35.0 L -12.5 -38.0 L -37.5 -38.0 L -37.5 -35.0 L -62.5 -35.0 L -62.5 -38.0 L -87.5 -38.0 L -87.5 -35.0 L -112.5 -35.0 L -112.5 -38.0 L -121.5 -38.0 L -121.5 38.0 " stroke="#000000" stroke-width="0.35 px" style="stroke-width:0.35;stroke-miterlimit:4;stroke-dasharray:none;fill:none;fill-rule: evenodd "/>
</g>
</svg>