<?xml version="1.0" encoding="UTF-8" standalone="no"?>
<!-- Created with Inkscape (http://www.inkscape.org/) -->

<svg
   xmlns:dc="http://purl.org/dc/elements/1.1/"
   xmlns:cc="http://creativecommons.org/ns#"
   xmlns:rdf="http://www.w3.org/1999/02/22-rdf-syntax-ns#"
   xmlns:svg="http://www.w3.org/2000/svg"
   xmlns="http://www.w3.org/2000/svg"
   xmlns:sodipodi="http://sodipodi.sourceforge.net/DTD/sodipodi-0.dtd"
   xmlns:inkscape="http://www.inkscape.org/namespaces/inkscape"
   width="300mm"
   height="200mm"
   viewBox="0 0 1062.9921 708.66141"
   id="svg2"
   version="1.1"
   inkscape:version="0.91 r13725"
   sodipodi:docname="300200S5.svg">
  <defs
     id="defs4" />
  <sodipodi:namedview
     id="base"
     pagecolor="#ffffff"
     bordercolor="#666666"
     borderopacity="1.0"
     inkscape:pageopacity="0.0"
     inkscape:pageshadow="2"
     inkscape:zoom="0.98994949"
     inkscape:cx="887.45081"
     inkscape:cy="308.0391"
     inkscape:document-units="mm"
     inkscape:current-layer="layer1"
     showgrid="false"
     inkscape:window-width="1920"
     inkscape:window-height="1002"
     inkscape:window-x="0"
     inkscape:window-y="1024"
     inkscape:window-maximized="1" />
  <metadata
     id="metadata7">
    <rdf:RDF>
      <cc:Work
         rdf:about="">
        <dc:format>image/svg+xml</dc:format>
        <dc:type
           rdf:resource="http://purl.org/dc/dcmitype/StillImage" />
        <dc:title />
      </cc:Work>
    </rdf:RDF>
  </metadata>
  <g
     inkscape:label="Layer 1"
     inkscape:groupmode="layer"
     id="layer1"
     transform="translate(0,-343.70079)">
    <path
       inkscape:connector-curvature="0"
       id="Pad_f0000"
       d="m 927.48028,978.09898 0,0 0,35.43312 0,0 0,-35.43312 z"
       style="fill:#cccccc;fill-rule:evenodd;stroke:#191919;stroke-width:1.24015749;stroke-miterlimit:4;stroke-dasharray:none" />
    <path
       inkscape:connector-curvature="0"
       id="Pad_f0001"
       d="m 927.48028,1013.5321 0,0 10.62992,0 0,0 -10.62992,0 z"
       style="fill:#cccccc;fill-rule:evenodd;stroke:#191919;stroke-width:1.24015749;stroke-miterlimit:4;stroke-dasharray:none" />
    <path
       inkscape:connector-curvature="0"
       id="Pad_f0002"
       d="m 938.1102,1013.5321 0,0 0,10.6299 0,0 0,-10.6299 z"
       style="fill:#cccccc;fill-rule:evenodd;stroke:#191919;stroke-width:1.24015749;stroke-miterlimit:4;stroke-dasharray:none" />
    <path
       inkscape:connector-curvature="0"
       id="Pad_f0003"
       d="m 938.1102,1024.162 0,0 -825.59056,0 0,0 825.59056,0 z"
       style="fill:#cccccc;fill-rule:evenodd;stroke:#191919;stroke-width:1.24015749;stroke-miterlimit:4;stroke-dasharray:none" />
    <path
       inkscape:connector-curvature="0"
       id="Pad_f0004"
       d="m 112.51964,1024.162 0,0 -10.62992,0 0,0 10.62992,0 z"
       style="fill:#cccccc;fill-rule:evenodd;stroke:#191919;stroke-width:1.24015749;stroke-miterlimit:4;stroke-dasharray:none" />
    <path
       inkscape:connector-curvature="0"
       id="Pad_f0005"
       d="m 101.88972,1024.162 0,0 0,-10.6299 0,0 0,10.6299 z"
       style="fill:#cccccc;fill-rule:evenodd;stroke:#191919;stroke-width:1.24015749;stroke-miterlimit:4;stroke-dasharray:none" />
    <path
       inkscape:connector-curvature="0"
       id="Pad_f0006"
       d="m 101.88972,1013.5321 0,0 10.62992,0 0,0 -10.62992,0 z"
       style="fill:#cccccc;fill-rule:evenodd;stroke:#191919;stroke-width:1.24015749;stroke-miterlimit:4;stroke-dasharray:none" />
    <path
       inkscape:connector-curvature="0"
       id="Pad_f0007"
       d="m 112.51964,1013.5321 0,0 0,-35.43312 0,0 0,35.43312 z"
       style="fill:#cccccc;fill-rule:evenodd;stroke:#191919;stroke-width:1.24015749;stroke-miterlimit:4;stroke-dasharray:none" />
    <path
       inkscape:connector-curvature="0"
       id="Pad_f0008"
       d="m 112.51964,978.09898 -10.62992,0 0,0 10.62992,0 0,0 z"
       style="fill:#cccccc;fill-rule:evenodd;stroke:#191919;stroke-width:1.24015749;stroke-miterlimit:4;stroke-dasharray:none" />
    <path
       inkscape:connector-curvature="0"
       id="Pad_f0009"
       d="m 101.88972,978.09898 0,-35.43307 0,0 0,35.43307 0,0 z"
       style="fill:#cccccc;fill-rule:evenodd;stroke:#191919;stroke-width:1.24015749;stroke-miterlimit:4;stroke-dasharray:none" />
    <path
       inkscape:connector-curvature="0"
       id="Pad_f0010"
       d="m 101.88972,942.66591 10.62992,0 0,0 -10.62992,0 0,0 z"
       style="fill:#cccccc;fill-rule:evenodd;stroke:#191919;stroke-width:1.24015749;stroke-miterlimit:4;stroke-dasharray:none" />
    <path
       inkscape:connector-curvature="0"
       id="Pad_f0011"
       d="m 112.51964,942.66591 0,-35.43307 0,0 0,35.43307 0,0 z"
       style="fill:#cccccc;fill-rule:evenodd;stroke:#191919;stroke-width:1.24015749;stroke-miterlimit:4;stroke-dasharray:none" />
    <path
       inkscape:connector-curvature="0"
       id="Pad_f0012"
       d="m 112.51964,907.23284 0,0 -10.62992,0 0,0 10.62992,0 z"
       style="fill:#cccccc;fill-rule:evenodd;stroke:#191919;stroke-width:1.24015749;stroke-miterlimit:4;stroke-dasharray:none" />
    <path
       inkscape:connector-curvature="0"
       id="Pad_f0013"
       d="m 101.88972,907.23284 0,0 0,-35.43307 0,0 0,35.43307 z"
       style="fill:#cccccc;fill-rule:evenodd;stroke:#191919;stroke-width:1.24015749;stroke-miterlimit:4;stroke-dasharray:none" />
    <path
       inkscape:connector-curvature="0"
       id="Pad_f0014"
       d="m 101.88972,871.79977 0,0 10.62992,0 0,0 -10.62992,0 z"
       style="fill:#cccccc;fill-rule:evenodd;stroke:#191919;stroke-width:1.24015749;stroke-miterlimit:4;stroke-dasharray:none" />
    <path
       inkscape:connector-curvature="0"
       id="Pad_f0015"
       d="m 112.51964,871.79977 0,-35.43307 0,0 0,35.43307 0,0 z"
       style="fill:#cccccc;fill-rule:evenodd;stroke:#191919;stroke-width:1.24015749;stroke-miterlimit:4;stroke-dasharray:none" />
    <path
       inkscape:connector-curvature="0"
       id="Pad_f0016"
       d="m 112.51964,836.3667 0,0 -10.62992,0 0,0 10.62992,0 z"
       style="fill:#cccccc;fill-rule:evenodd;stroke:#191919;stroke-width:1.24015749;stroke-miterlimit:4;stroke-dasharray:none" />
    <path
       inkscape:connector-curvature="0"
       id="Pad_f0017"
       d="m 101.88972,836.3667 0,0 0,-70.86614 0,0 0,70.86614 z"
       style="fill:#cccccc;fill-rule:evenodd;stroke:#191919;stroke-width:1.24015749;stroke-miterlimit:4;stroke-dasharray:none" />
    <path
       inkscape:connector-curvature="0"
       id="Pad_f0018"
       d="m 101.88972,765.50056 0,0 10.62992,0 0,0 -10.62992,0 z"
       style="fill:#cccccc;fill-rule:evenodd;stroke:#191919;stroke-width:1.24015749;stroke-miterlimit:4;stroke-dasharray:none" />
    <path
       inkscape:connector-curvature="0"
       id="Pad_f0019"
       d="m 112.51964,765.50056 0,-35.43307 0,0 0,35.43307 0,0 z"
       style="fill:#cccccc;fill-rule:evenodd;stroke:#191919;stroke-width:1.24015749;stroke-miterlimit:4;stroke-dasharray:none" />
    <path
       inkscape:connector-curvature="0"
       id="Pad_f0020"
       d="m 112.51964,730.06749 -10.62992,0 0,0 10.62992,0 0,0 z"
       style="fill:#cccccc;fill-rule:evenodd;stroke:#191919;stroke-width:1.24015749;stroke-miterlimit:4;stroke-dasharray:none" />
    <path
       inkscape:connector-curvature="0"
       id="Pad_f0021"
       d="m 101.88972,730.06749 0,-35.43307 0,0 0,35.43307 0,0 z"
       style="fill:#cccccc;fill-rule:evenodd;stroke:#191919;stroke-width:1.24015749;stroke-miterlimit:4;stroke-dasharray:none" />
    <path
       inkscape:connector-curvature="0"
       id="Pad_f0022"
       d="m 101.88972,694.63442 10.62992,0 0,0 -10.62992,0 0,0 z"
       style="fill:#cccccc;fill-rule:evenodd;stroke:#191919;stroke-width:1.24015749;stroke-miterlimit:4;stroke-dasharray:none" />
    <path
       inkscape:connector-curvature="0"
       id="Pad_f0023"
       d="m 112.51964,694.63442 0,-35.43307 0,0 0,35.43307 0,0 z"
       style="fill:#cccccc;fill-rule:evenodd;stroke:#191919;stroke-width:1.24015749;stroke-miterlimit:4;stroke-dasharray:none" />
    <path
       inkscape:connector-curvature="0"
       id="Pad_f0024"
       d="m 112.51964,659.20135 0,0 -10.62992,0 0,0 10.62992,0 z"
       style="fill:#cccccc;fill-rule:evenodd;stroke:#191919;stroke-width:1.24015749;stroke-miterlimit:4;stroke-dasharray:none" />
    <path
       inkscape:connector-curvature="0"
       id="Pad_f0025"
       d="m 101.88972,659.20135 0,0 0,-35.43307 0,0 0,35.43307 z"
       style="fill:#cccccc;fill-rule:evenodd;stroke:#191919;stroke-width:1.24015749;stroke-miterlimit:4;stroke-dasharray:none" />
    <path
       inkscape:connector-curvature="0"
       id="Pad_f0026"
       d="m 101.88972,623.76828 0,0 10.62992,0 0,0 -10.62992,0 z"
       style="fill:#cccccc;fill-rule:evenodd;stroke:#191919;stroke-width:1.24015749;stroke-miterlimit:4;stroke-dasharray:none" />
    <path
       inkscape:connector-curvature="0"
       id="Pad_f0027"
       d="m 112.51964,623.76828 0,-35.43308 0,0 0,35.43308 0,0 z"
       style="fill:#cccccc;fill-rule:evenodd;stroke:#191919;stroke-width:1.24015749;stroke-miterlimit:4;stroke-dasharray:none" />
    <path
       inkscape:connector-curvature="0"
       id="Pad_f0028"
       d="m 112.51964,588.3352 0,0 -10.62992,0 0,0 10.62992,0 z"
       style="fill:#cccccc;fill-rule:evenodd;stroke:#191919;stroke-width:1.24015749;stroke-miterlimit:4;stroke-dasharray:none" />
    <path
       inkscape:connector-curvature="0"
       id="Pad_f0029"
       d="m 101.88972,588.3352 0,0 0,-10.62992 0,0 0,10.62992 z"
       style="fill:#cccccc;fill-rule:evenodd;stroke:#191919;stroke-width:1.24015749;stroke-miterlimit:4;stroke-dasharray:none" />
    <path
       inkscape:connector-curvature="0"
       id="Pad_f0030"
       d="m 101.88972,577.70528 0,0 10.62992,0 0,0 -10.62992,0 z"
       style="fill:#cccccc;fill-rule:evenodd;stroke:#191919;stroke-width:1.24015749;stroke-miterlimit:4;stroke-dasharray:none" />
    <path
       inkscape:connector-curvature="0"
       id="Pad_f0031"
       d="m 112.51964,577.70528 0,0 35.43307,0 0,0 -35.43307,0 z"
       style="fill:#cccccc;fill-rule:evenodd;stroke:#191919;stroke-width:1.24015749;stroke-miterlimit:4;stroke-dasharray:none" />
    <path
       inkscape:connector-curvature="0"
       id="Pad_f0032"
       d="m 147.95271,577.70528 0,10.62992 0,0 0,-10.62992 0,0 z"
       style="fill:#cccccc;fill-rule:evenodd;stroke:#191919;stroke-width:1.24015749;stroke-miterlimit:4;stroke-dasharray:none" />
    <path
       inkscape:connector-curvature="0"
       id="Pad_f0033"
       d="m 147.95271,588.3352 35.43308,0 0,0 -35.43308,0 0,0 z"
       style="fill:#cccccc;fill-rule:evenodd;stroke:#191919;stroke-width:1.24015749;stroke-miterlimit:4;stroke-dasharray:none" />
    <path
       inkscape:connector-curvature="0"
       id="Pad_f0034"
       d="m 183.38579,588.3352 0,-10.62992 0,0 0,10.62992 0,0 z"
       style="fill:#cccccc;fill-rule:evenodd;stroke:#191919;stroke-width:1.24015749;stroke-miterlimit:4;stroke-dasharray:none" />
    <path
       inkscape:connector-curvature="0"
       id="Pad_f0035"
       d="m 183.38579,577.70528 0,0 35.43307,0 0,0 -35.43307,0 z"
       style="fill:#cccccc;fill-rule:evenodd;stroke:#191919;stroke-width:1.24015749;stroke-miterlimit:4;stroke-dasharray:none" />
    <path
       inkscape:connector-curvature="0"
       id="Pad_f0036"
       d="m 218.81886,577.70528 0,10.62992 0,0 0,-10.62992 0,0 z"
       style="fill:#cccccc;fill-rule:evenodd;stroke:#191919;stroke-width:1.24015749;stroke-miterlimit:4;stroke-dasharray:none" />
    <path
       inkscape:connector-curvature="0"
       id="Pad_f0037"
       d="m 218.81886,588.3352 35.43307,0 0,0 -35.43307,0 0,0 z"
       style="fill:#cccccc;fill-rule:evenodd;stroke:#191919;stroke-width:1.24015749;stroke-miterlimit:4;stroke-dasharray:none" />
    <path
       inkscape:connector-curvature="0"
       id="Pad_f0038"
       d="m 254.25193,588.3352 0,-10.62992 0,0 0,10.62992 0,0 z"
       style="fill:#cccccc;fill-rule:evenodd;stroke:#191919;stroke-width:1.24015749;stroke-miterlimit:4;stroke-dasharray:none" />
    <path
       inkscape:connector-curvature="0"
       id="Pad_f0039"
       d="m 254.25193,577.70528 0,0 35.43307,0 0,0 -35.43307,0 z"
       style="fill:#cccccc;fill-rule:evenodd;stroke:#191919;stroke-width:1.24015749;stroke-miterlimit:4;stroke-dasharray:none" />
    <path
       inkscape:connector-curvature="0"
       id="Pad_f0040"
       d="m 289.685,577.70528 0,10.62992 0,0 0,-10.62992 0,0 z"
       style="fill:#cccccc;fill-rule:evenodd;stroke:#191919;stroke-width:1.24015749;stroke-miterlimit:4;stroke-dasharray:none" />
    <path
       inkscape:connector-curvature="0"
       id="Pad_f0041"
       d="m 289.685,588.3352 35.43307,0 0,0 -35.43307,0 0,0 z"
       style="fill:#cccccc;fill-rule:evenodd;stroke:#191919;stroke-width:1.24015749;stroke-miterlimit:4;stroke-dasharray:none" />
    <path
       inkscape:connector-curvature="0"
       id="Pad_f0042"
       d="m 325.11807,588.3352 0,-10.62992 0,0 0,10.62992 0,0 z"
       style="fill:#cccccc;fill-rule:evenodd;stroke:#191919;stroke-width:1.24015749;stroke-miterlimit:4;stroke-dasharray:none" />
    <path
       inkscape:connector-curvature="0"
       id="Pad_f0043"
       d="m 325.11807,577.70528 0,0 35.43307,0 0,0 -35.43307,0 z"
       style="fill:#cccccc;fill-rule:evenodd;stroke:#191919;stroke-width:1.24015749;stroke-miterlimit:4;stroke-dasharray:none" />
    <path
       inkscape:connector-curvature="0"
       id="Pad_f0044"
       d="m 360.55114,577.70528 0,10.62992 0,0 0,-10.62992 0,0 z"
       style="fill:#cccccc;fill-rule:evenodd;stroke:#191919;stroke-width:1.24015749;stroke-miterlimit:4;stroke-dasharray:none" />
    <path
       inkscape:connector-curvature="0"
       id="Pad_f0045"
       d="m 360.55114,588.3352 35.43307,0 0,0 -35.43307,0 0,0 z"
       style="fill:#cccccc;fill-rule:evenodd;stroke:#191919;stroke-width:1.24015749;stroke-miterlimit:4;stroke-dasharray:none" />
    <path
       inkscape:connector-curvature="0"
       id="Pad_f0046"
       d="m 395.98421,588.3352 0,-10.62992 0,0 0,10.62992 0,0 z"
       style="fill:#cccccc;fill-rule:evenodd;stroke:#191919;stroke-width:1.24015749;stroke-miterlimit:4;stroke-dasharray:none" />
    <path
       inkscape:connector-curvature="0"
       id="Pad_f0047"
       d="m 395.98421,577.70528 0,0 35.43307,0 0,0 -35.43307,0 z"
       style="fill:#cccccc;fill-rule:evenodd;stroke:#191919;stroke-width:1.24015749;stroke-miterlimit:4;stroke-dasharray:none" />
    <path
       inkscape:connector-curvature="0"
       id="Pad_f0048"
       d="m 431.41728,577.70528 0,0 0,10.62992 0,0 0,-10.62992 z"
       style="fill:#cccccc;fill-rule:evenodd;stroke:#191919;stroke-width:1.24015749;stroke-miterlimit:4;stroke-dasharray:none" />
    <path
       inkscape:connector-curvature="0"
       id="Pad_f0049"
       d="m 431.41728,588.3352 0,0 35.43307,0 0,0 -35.43307,0 z"
       style="fill:#cccccc;fill-rule:evenodd;stroke:#191919;stroke-width:1.24015749;stroke-miterlimit:4;stroke-dasharray:none" />
    <path
       inkscape:connector-curvature="0"
       id="Pad_f0050"
       d="m 466.85035,588.3352 0,0 0,-10.62992 0,0 0,10.62992 z"
       style="fill:#cccccc;fill-rule:evenodd;stroke:#191919;stroke-width:1.24015749;stroke-miterlimit:4;stroke-dasharray:none" />
    <path
       inkscape:connector-curvature="0"
       id="Pad_f0051"
       d="m 466.85035,577.70528 0,0 106.29922,0 0,0 -106.29922,0 z"
       style="fill:#cccccc;fill-rule:evenodd;stroke:#191919;stroke-width:1.24015749;stroke-miterlimit:4;stroke-dasharray:none" />
    <path
       inkscape:connector-curvature="0"
       id="Pad_f0052"
       d="m 573.14957,577.70528 0,0 0,10.62992 0,0 0,-10.62992 z"
       style="fill:#cccccc;fill-rule:evenodd;stroke:#191919;stroke-width:1.24015749;stroke-miterlimit:4;stroke-dasharray:none" />
    <path
       inkscape:connector-curvature="0"
       id="Pad_f0053"
       d="m 573.14957,588.3352 0,0 35.43307,0 0,0 -35.43307,0 z"
       style="fill:#cccccc;fill-rule:evenodd;stroke:#191919;stroke-width:1.24015749;stroke-miterlimit:4;stroke-dasharray:none" />
    <path
       inkscape:connector-curvature="0"
       id="Pad_f0054"
       d="m 608.58264,588.3352 0,-10.62992 0,0 0,10.62992 0,0 z"
       style="fill:#cccccc;fill-rule:evenodd;stroke:#191919;stroke-width:1.24015749;stroke-miterlimit:4;stroke-dasharray:none" />
    <path
       inkscape:connector-curvature="0"
       id="Pad_f0055"
       d="m 608.58264,577.70528 35.43307,0 0,0 -35.43307,0 0,0 z"
       style="fill:#cccccc;fill-rule:evenodd;stroke:#191919;stroke-width:1.24015749;stroke-miterlimit:4;stroke-dasharray:none" />
    <path
       inkscape:connector-curvature="0"
       id="Pad_f0056"
       d="m 644.01571,577.70528 0,10.62992 0,0 0,-10.62992 0,0 z"
       style="fill:#cccccc;fill-rule:evenodd;stroke:#191919;stroke-width:1.24015749;stroke-miterlimit:4;stroke-dasharray:none" />
    <path
       inkscape:connector-curvature="0"
       id="Pad_f0057"
       d="m 644.01571,588.3352 0,0 35.43307,0 0,0 -35.43307,0 z"
       style="fill:#cccccc;fill-rule:evenodd;stroke:#191919;stroke-width:1.24015749;stroke-miterlimit:4;stroke-dasharray:none" />
    <path
       inkscape:connector-curvature="0"
       id="Pad_f0058"
       d="m 679.44878,588.3352 0,-10.62992 0,0 0,10.62992 0,0 z"
       style="fill:#cccccc;fill-rule:evenodd;stroke:#191919;stroke-width:1.24015749;stroke-miterlimit:4;stroke-dasharray:none" />
    <path
       inkscape:connector-curvature="0"
       id="Pad_f0059"
       d="m 679.44878,577.70528 35.43307,0 0,0 -35.43307,0 0,0 z"
       style="fill:#cccccc;fill-rule:evenodd;stroke:#191919;stroke-width:1.24015749;stroke-miterlimit:4;stroke-dasharray:none" />
    <path
       inkscape:connector-curvature="0"
       id="Pad_f0060"
       d="m 714.88185,577.70528 0,10.62992 0,0 0,-10.62992 0,0 z"
       style="fill:#cccccc;fill-rule:evenodd;stroke:#191919;stroke-width:1.24015749;stroke-miterlimit:4;stroke-dasharray:none" />
    <path
       inkscape:connector-curvature="0"
       id="Pad_f0061"
       d="m 714.88185,588.3352 0,0 35.43307,0 0,0 -35.43307,0 z"
       style="fill:#cccccc;fill-rule:evenodd;stroke:#191919;stroke-width:1.24015749;stroke-miterlimit:4;stroke-dasharray:none" />
    <path
       inkscape:connector-curvature="0"
       id="Pad_f0062"
       d="m 750.31492,588.3352 0,-10.62992 0,0 0,10.62992 0,0 z"
       style="fill:#cccccc;fill-rule:evenodd;stroke:#191919;stroke-width:1.24015749;stroke-miterlimit:4;stroke-dasharray:none" />
    <path
       inkscape:connector-curvature="0"
       id="Pad_f0063"
       d="m 750.31492,577.70528 35.43307,0 0,0 -35.43307,0 0,0 z"
       style="fill:#cccccc;fill-rule:evenodd;stroke:#191919;stroke-width:1.24015749;stroke-miterlimit:4;stroke-dasharray:none" />
    <path
       inkscape:connector-curvature="0"
       id="Pad_f0064"
       d="m 785.74799,577.70528 0,10.62992 0,0 0,-10.62992 0,0 z"
       style="fill:#cccccc;fill-rule:evenodd;stroke:#191919;stroke-width:1.24015749;stroke-miterlimit:4;stroke-dasharray:none" />
    <path
       inkscape:connector-curvature="0"
       id="Pad_f0065"
       d="m 785.74799,588.3352 0,0 35.43307,0 0,0 -35.43307,0 z"
       style="fill:#cccccc;fill-rule:evenodd;stroke:#191919;stroke-width:1.24015749;stroke-miterlimit:4;stroke-dasharray:none" />
    <path
       inkscape:connector-curvature="0"
       id="Pad_f0066"
       d="m 821.18106,588.3352 0,0 0,-10.62992 0,0 0,10.62992 z"
       style="fill:#cccccc;fill-rule:evenodd;stroke:#191919;stroke-width:1.24015749;stroke-miterlimit:4;stroke-dasharray:none" />
    <path
       inkscape:connector-curvature="0"
       id="Pad_f0067"
       d="m 821.18106,577.70528 0,0 35.43307,0 0,0 -35.43307,0 z"
       style="fill:#cccccc;fill-rule:evenodd;stroke:#191919;stroke-width:1.24015749;stroke-miterlimit:4;stroke-dasharray:none" />
    <path
       inkscape:connector-curvature="0"
       id="Pad_f0068"
       d="m 856.61413,577.70528 0,0 0,10.62992 0,0 0,-10.62992 z"
       style="fill:#cccccc;fill-rule:evenodd;stroke:#191919;stroke-width:1.24015749;stroke-miterlimit:4;stroke-dasharray:none" />
    <path
       inkscape:connector-curvature="0"
       id="Pad_f0069"
       d="m 856.61413,588.3352 0,0 35.43308,0 0,0 -35.43308,0 z"
       style="fill:#cccccc;fill-rule:evenodd;stroke:#191919;stroke-width:1.24015749;stroke-miterlimit:4;stroke-dasharray:none" />
    <path
       inkscape:connector-curvature="0"
       id="Pad_f0070"
       d="m 892.04721,588.3352 0,0 0,-10.62992 0,0 0,10.62992 z"
       style="fill:#cccccc;fill-rule:evenodd;stroke:#191919;stroke-width:1.24015749;stroke-miterlimit:4;stroke-dasharray:none" />
    <path
       inkscape:connector-curvature="0"
       id="Pad_f0071"
       d="m 892.04721,577.70528 0,0 35.43307,0 0,0 -35.43307,0 z"
       style="fill:#cccccc;fill-rule:evenodd;stroke:#191919;stroke-width:1.24015749;stroke-miterlimit:4;stroke-dasharray:none" />
    <path
       inkscape:connector-curvature="0"
       id="Pad_f0072"
       d="m 927.48028,577.70528 0,0 10.62992,0 0,0 -10.62992,0 z"
       style="fill:#cccccc;fill-rule:evenodd;stroke:#191919;stroke-width:1.24015749;stroke-miterlimit:4;stroke-dasharray:none" />
    <path
       inkscape:connector-curvature="0"
       id="Pad_f0073"
       d="m 938.1102,577.70528 0,0 0,10.62992 0,0 0,-10.62992 z"
       style="fill:#cccccc;fill-rule:evenodd;stroke:#191919;stroke-width:1.24015749;stroke-miterlimit:4;stroke-dasharray:none" />
    <path
       inkscape:connector-curvature="0"
       id="Pad_f0074"
       d="m 938.1102,588.3352 -10.62992,0 0,0 10.62992,0 0,0 z"
       style="fill:#cccccc;fill-rule:evenodd;stroke:#191919;stroke-width:1.24015749;stroke-miterlimit:4;stroke-dasharray:none" />
    <path
       inkscape:connector-curvature="0"
       id="Pad_f0075"
       d="m 927.48028,588.3352 0,0 0,35.43308 0,0 0,-35.43308 z"
       style="fill:#cccccc;fill-rule:evenodd;stroke:#191919;stroke-width:1.24015749;stroke-miterlimit:4;stroke-dasharray:none" />
    <path
       inkscape:connector-curvature="0"
       id="Pad_f0076"
       d="m 927.48028,623.76828 10.62992,0 0,0 -10.62992,0 0,0 z"
       style="fill:#cccccc;fill-rule:evenodd;stroke:#191919;stroke-width:1.24015749;stroke-miterlimit:4;stroke-dasharray:none" />
    <path
       inkscape:connector-curvature="0"
       id="Pad_f0077"
       d="m 938.1102,623.76828 0,0 0,35.43307 0,0 0,-35.43307 z"
       style="fill:#cccccc;fill-rule:evenodd;stroke:#191919;stroke-width:1.24015749;stroke-miterlimit:4;stroke-dasharray:none" />
    <path
       inkscape:connector-curvature="0"
       id="Pad_f0078"
       d="m 938.1102,659.20135 0,0 -10.62992,0 0,0 10.62992,0 z"
       style="fill:#cccccc;fill-rule:evenodd;stroke:#191919;stroke-width:1.24015749;stroke-miterlimit:4;stroke-dasharray:none" />
    <path
       inkscape:connector-curvature="0"
       id="Pad_f0079"
       d="m 927.48028,659.20135 0,0 0,35.43307 0,0 0,-35.43307 z"
       style="fill:#cccccc;fill-rule:evenodd;stroke:#191919;stroke-width:1.24015749;stroke-miterlimit:4;stroke-dasharray:none" />
    <path
       inkscape:connector-curvature="0"
       id="Pad_f0080"
       d="m 927.48028,694.63442 0,0 10.62992,0 0,0 -10.62992,0 z"
       style="fill:#cccccc;fill-rule:evenodd;stroke:#191919;stroke-width:1.24015749;stroke-miterlimit:4;stroke-dasharray:none" />
    <path
       inkscape:connector-curvature="0"
       id="Pad_f0081"
       d="m 938.1102,694.63442 0,0 0,35.43307 0,0 0,-35.43307 z"
       style="fill:#cccccc;fill-rule:evenodd;stroke:#191919;stroke-width:1.24015749;stroke-miterlimit:4;stroke-dasharray:none" />
    <path
       inkscape:connector-curvature="0"
       id="Pad_f0082"
       d="m 938.1102,730.06749 0,0 -10.62992,0 0,0 10.62992,0 z"
       style="fill:#cccccc;fill-rule:evenodd;stroke:#191919;stroke-width:1.24015749;stroke-miterlimit:4;stroke-dasharray:none" />
    <path
       inkscape:connector-curvature="0"
       id="Pad_f0083"
       d="m 927.48028,730.06749 0,0 0,35.43307 0,0 0,-35.43307 z"
       style="fill:#cccccc;fill-rule:evenodd;stroke:#191919;stroke-width:1.24015749;stroke-miterlimit:4;stroke-dasharray:none" />
    <path
       inkscape:connector-curvature="0"
       id="Pad_f0084"
       d="m 927.48028,765.50056 0,0 10.62992,0 0,0 -10.62992,0 z"
       style="fill:#cccccc;fill-rule:evenodd;stroke:#191919;stroke-width:1.24015749;stroke-miterlimit:4;stroke-dasharray:none" />
    <path
       inkscape:connector-curvature="0"
       id="Pad_f0085"
       d="m 938.1102,765.50056 0,0 0,70.86614 0,0 0,-70.86614 z"
       style="fill:#cccccc;fill-rule:evenodd;stroke:#191919;stroke-width:1.24015749;stroke-miterlimit:4;stroke-dasharray:none" />
    <path
       inkscape:connector-curvature="0"
       id="Pad_f0086"
       d="m 938.1102,836.3667 -10.62992,0 0,0 10.62992,0 0,0 z"
       style="fill:#cccccc;fill-rule:evenodd;stroke:#191919;stroke-width:1.24015749;stroke-miterlimit:4;stroke-dasharray:none" />
    <path
       inkscape:connector-curvature="0"
       id="Pad_f0087"
       d="m 927.48028,836.3667 0,35.43307 0,0 0,-35.43307 0,0 z"
       style="fill:#cccccc;fill-rule:evenodd;stroke:#191919;stroke-width:1.24015749;stroke-miterlimit:4;stroke-dasharray:none" />
    <path
       inkscape:connector-curvature="0"
       id="Pad_f0088"
       d="m 927.48028,871.79977 10.62992,0 0,0 -10.62992,0 0,0 z"
       style="fill:#cccccc;fill-rule:evenodd;stroke:#191919;stroke-width:1.24015749;stroke-miterlimit:4;stroke-dasharray:none" />
    <path
       inkscape:connector-curvature="0"
       id="Pad_f0089"
       d="m 938.1102,871.79977 0,35.43307 0,0 0,-35.43307 0,0 z"
       style="fill:#cccccc;fill-rule:evenodd;stroke:#191919;stroke-width:1.24015749;stroke-miterlimit:4;stroke-dasharray:none" />
    <path
       inkscape:connector-curvature="0"
       id="Pad_f0090"
       d="m 938.1102,907.23284 -10.62992,0 0,0 10.62992,0 0,0 z"
       style="fill:#cccccc;fill-rule:evenodd;stroke:#191919;stroke-width:1.24015749;stroke-miterlimit:4;stroke-dasharray:none" />
    <path
       inkscape:connector-curvature="0"
       id="Pad_f0091"
       d="m 927.48028,907.23284 0,35.43307 0,0 0,-35.43307 0,0 z"
       style="fill:#cccccc;fill-rule:evenodd;stroke:#191919;stroke-width:1.24015749;stroke-miterlimit:4;stroke-dasharray:none" />
    <path
       inkscape:connector-curvature="0"
       id="Pad_f0092"
       d="m 927.48028,942.66591 10.62992,0 0,0 -10.62992,0 0,0 z"
       style="fill:#cccccc;fill-rule:evenodd;stroke:#191919;stroke-width:1.24015749;stroke-miterlimit:4;stroke-dasharray:none" />
    <path
       inkscape:connector-curvature="0"
       id="Pad_f0093"
       d="m 938.1102,942.66591 0,35.43307 0,0 0,-35.43307 0,0 z"
       style="fill:#cccccc;fill-rule:evenodd;stroke:#191919;stroke-width:1.24015749;stroke-miterlimit:4;stroke-dasharray:none" />
    <path
       inkscape:connector-curvature="0"
       id="Pad_f0094"
       d="m 938.1102,978.09898 -10.62992,0 0,0 10.62992,0 0,0 z"
       style="fill:#cccccc;fill-rule:evenodd;stroke:#191919;stroke-width:1.24015749;stroke-miterlimit:4;stroke-dasharray:none" />
    <path
       inkscape:connector-curvature="0"
       id="Pad_f0095"
       d="m 525.31492,960.38245 0,0 -10.62992,0 0,0 10.62992,0 z"
       style="fill:#cccccc;fill-rule:evenodd;stroke:#191919;stroke-width:1.24015749;stroke-miterlimit:4;stroke-dasharray:none" />
    <path
       inkscape:connector-curvature="0"
       id="Pad_f0096"
       d="m 514.685,960.38245 0,0 0,35.43307 0,0 0,-35.43307 z"
       style="fill:#cccccc;fill-rule:evenodd;stroke:#191919;stroke-width:1.24015749;stroke-miterlimit:4;stroke-dasharray:none" />
    <path
       inkscape:connector-curvature="0"
       id="Pad_f0097"
       d="m 514.685,995.81552 0,0 10.62992,0 0,0 -10.62992,0 z"
       style="fill:#cccccc;fill-rule:evenodd;stroke:#191919;stroke-width:1.24015749;stroke-miterlimit:4;stroke-dasharray:none" />
    <path
       inkscape:connector-curvature="0"
       id="Pad_f0098"
       d="m 525.31492,995.81552 0,-35.43307 0,0 0,35.43307 0,0 z"
       style="fill:#cccccc;fill-rule:evenodd;stroke:#191919;stroke-width:1.24015749;stroke-miterlimit:4;stroke-dasharray:none" />
    <path
       inkscape:connector-curvature="0"
       id="Pad_f0099"
       d="m 525.31492,889.51631 0,0 -10.62992,0 0,0 10.62992,0 z"
       style="fill:#cccccc;fill-rule:evenodd;stroke:#191919;stroke-width:1.24015749;stroke-miterlimit:4;stroke-dasharray:none" />
    <path
       inkscape:connector-curvature="0"
       id="Pad_f0100"
       d="m 514.685,889.51631 0,0 0,35.43307 0,0 0,-35.43307 z"
       style="fill:#cccccc;fill-rule:evenodd;stroke:#191919;stroke-width:1.24015749;stroke-miterlimit:4;stroke-dasharray:none" />
    <path
       inkscape:connector-curvature="0"
       id="Pad_f0101"
       d="m 514.685,924.94938 0,0 10.62992,0 0,0 -10.62992,0 z"
       style="fill:#cccccc;fill-rule:evenodd;stroke:#191919;stroke-width:1.24015749;stroke-miterlimit:4;stroke-dasharray:none" />
    <path
       inkscape:connector-curvature="0"
       id="Pad_f0102"
       d="m 525.31492,924.94938 0,-35.43307 0,0 0,35.43307 0,0 z"
       style="fill:#cccccc;fill-rule:evenodd;stroke:#191919;stroke-width:1.24015749;stroke-miterlimit:4;stroke-dasharray:none" />
    <path
       inkscape:connector-curvature="0"
       id="Pad_f0103"
       d="m 514.685,606.05174 0,0 0,35.43307 0,0 0,-35.43307 z"
       style="fill:#cccccc;fill-rule:evenodd;stroke:#191919;stroke-width:1.24015749;stroke-miterlimit:4;stroke-dasharray:none" />
    <path
       inkscape:connector-curvature="0"
       id="Pad_f0104"
       d="m 514.685,641.48481 0,0 10.62992,0 0,0 -10.62992,0 z"
       style="fill:#cccccc;fill-rule:evenodd;stroke:#191919;stroke-width:1.24015749;stroke-miterlimit:4;stroke-dasharray:none" />
    <path
       inkscape:connector-curvature="0"
       id="Pad_f0105"
       d="m 525.31492,641.48481 0,-35.43307 0,0 0,35.43307 0,0 z"
       style="fill:#cccccc;fill-rule:evenodd;stroke:#191919;stroke-width:1.24015749;stroke-miterlimit:4;stroke-dasharray:none" />
    <path
       inkscape:connector-curvature="0"
       id="Pad_f0106"
       d="m 525.31492,606.05174 -10.62992,0 0,0 10.62992,0 0,0 z"
       style="fill:#cccccc;fill-rule:evenodd;stroke:#191919;stroke-width:1.24015749;stroke-miterlimit:4;stroke-dasharray:none" />
    <path
       inkscape:connector-curvature="0"
       id="Pad_f0107"
       d="m 525.31492,676.91788 0,0 -10.62992,0 0,0 10.62992,0 z"
       style="fill:#cccccc;fill-rule:evenodd;stroke:#191919;stroke-width:1.24015749;stroke-miterlimit:4;stroke-dasharray:none" />
    <path
       inkscape:connector-curvature="0"
       id="Pad_f0108"
       d="m 514.685,676.91788 0,0 0,35.43307 0,0 0,-35.43307 z"
       style="fill:#cccccc;fill-rule:evenodd;stroke:#191919;stroke-width:1.24015749;stroke-miterlimit:4;stroke-dasharray:none" />
    <path
       inkscape:connector-curvature="0"
       id="Pad_f0109"
       d="m 514.685,712.35095 0,0 10.62992,0 0,0 -10.62992,0 z"
       style="fill:#cccccc;fill-rule:evenodd;stroke:#191919;stroke-width:1.24015749;stroke-miterlimit:4;stroke-dasharray:none" />
    <path
       inkscape:connector-curvature="0"
       id="Pad_f0110"
       d="m 525.31492,712.35095 0,-35.43307 0,0 0,35.43307 0,0 z"
       style="fill:#cccccc;fill-rule:evenodd;stroke:#191919;stroke-width:1.24015749;stroke-miterlimit:4;stroke-dasharray:none" />
    <path
       inkscape:connector-curvature="0"
       id="Pad_f0111"
       d="m 525.31492,747.78402 0,0 -10.62992,0 0,0 10.62992,0 z"
       style="fill:#cccccc;fill-rule:evenodd;stroke:#191919;stroke-width:1.24015749;stroke-miterlimit:4;stroke-dasharray:none" />
    <path
       inkscape:connector-curvature="0"
       id="Pad_f0112"
       d="m 514.685,747.78402 0,0 0,35.43307 0,0 0,-35.43307 z"
       style="fill:#cccccc;fill-rule:evenodd;stroke:#191919;stroke-width:1.24015749;stroke-miterlimit:4;stroke-dasharray:none" />
    <path
       inkscape:connector-curvature="0"
       id="Pad_f0113"
       d="m 514.685,783.21709 0,0 10.62992,0 0,0 -10.62992,0 z"
       style="fill:#cccccc;fill-rule:evenodd;stroke:#191919;stroke-width:1.24015749;stroke-miterlimit:4;stroke-dasharray:none" />
    <path
       inkscape:connector-curvature="0"
       id="Pad_f0114"
       d="m 525.31492,783.21709 0,-35.43307 0,0 0,35.43307 0,0 z"
       style="fill:#cccccc;fill-rule:evenodd;stroke:#191919;stroke-width:1.24015749;stroke-miterlimit:4;stroke-dasharray:none" />
    <path
       inkscape:connector-curvature="0"
       id="Pad_f0115"
       d="m 525.31492,818.65017 0,0 -10.62992,0 0,0 10.62992,0 z"
       style="fill:#cccccc;fill-rule:evenodd;stroke:#191919;stroke-width:1.24015749;stroke-miterlimit:4;stroke-dasharray:none" />
    <path
       inkscape:connector-curvature="0"
       id="Pad_f0116"
       d="m 514.685,818.65017 0,0 0,35.43307 0,0 0,-35.43307 z"
       style="fill:#cccccc;fill-rule:evenodd;stroke:#191919;stroke-width:1.24015749;stroke-miterlimit:4;stroke-dasharray:none" />
    <path
       inkscape:connector-curvature="0"
       id="Pad_f0117"
       d="m 514.685,854.08324 0,0 10.62992,0 0,0 -10.62992,0 z"
       style="fill:#cccccc;fill-rule:evenodd;stroke:#191919;stroke-width:1.24015749;stroke-miterlimit:4;stroke-dasharray:none" />
    <path
       inkscape:connector-curvature="0"
       id="Pad_f0118"
       d="m 525.31492,854.08324 0,-35.43307 0,0 0,35.43307 0,0 z"
       style="fill:#cccccc;fill-rule:evenodd;stroke:#191919;stroke-width:1.24015749;stroke-miterlimit:4;stroke-dasharray:none" />
  </g>
</svg>
