<?xml version="1.0" encoding="UTF-8" standalone="no"?>
<!-- Created with Inkscape (http://www.inkscape.org/) -->

<svg
   xmlns:dc="http://purl.org/dc/elements/1.1/"
   xmlns:cc="http://creativecommons.org/ns#"
   xmlns:rdf="http://www.w3.org/1999/02/22-rdf-syntax-ns#"
   xmlns:svg="http://www.w3.org/2000/svg"
   xmlns="http://www.w3.org/2000/svg"
   xmlns:xlink="http://www.w3.org/1999/xlink"
   xmlns:sodipodi="http://sodipodi.sourceforge.net/DTD/sodipodi-0.dtd"
   xmlns:inkscape="http://www.inkscape.org/namespaces/inkscape"
   width="130mm"
   height="200mm"
   viewBox="0 0 460.62991 708.66139"
   id="svg2"
   version="1.1"
   inkscape:version="0.91 r13725"
   sodipodi:docname="boxtag.svg">
  <defs
     id="defs4">
    <path
       transform="matrix(10,0,0,-10,260,260)"
       id="p"
       d="M 2.8117,-1.046 A 3,3 0 0 1 0.5,2.958 l 0,1.5539 A 10.5,10.5 0 0 1 2,25.3078 l 0,0.5583 A 15,15 0 0 0 14.7975,8.5433 15,15 0 0 0 23.4007,-11.201 l -0.4835,0.2792 A 10.5,10.5 0 0 1 4.1574,-1.8229 Z m 3.4148,8.871 a 10,10 0 0 1 -12.453,0 9.5,9.5 0 0 0 -2.1756,2.7417 13.5,13.5 0 0 0 16.8042,0 A 10,10 0 0 0 6.2265,7.825 Z"
       inkscape:connector-curvature="0" />
  </defs>
  <sodipodi:namedview
     id="base"
     pagecolor="#ffffff"
     bordercolor="#666666"
     borderopacity="1.0"
     inkscape:pageopacity="0.0"
     inkscape:pageshadow="2"
     inkscape:zoom="2.8"
     inkscape:cx="278.54326"
     inkscape:cy="347.42363"
     inkscape:document-units="mm"
     inkscape:current-layer="layer1"
     showgrid="false"
     width="300mm"
     fit-margin-top="0"
     fit-margin-left="0"
     fit-margin-right="0"
     fit-margin-bottom="0"
     inkscape:window-width="1024"
     inkscape:window-height="571"
     inkscape:window-x="0"
     inkscape:window-y="0"
     inkscape:window-maximized="1" />
  <metadata
     id="metadata7">
    <rdf:RDF>
      <cc:Work
         rdf:about="">
        <dc:format>image/svg+xml</dc:format>
        <dc:type
           rdf:resource="http://purl.org/dc/dcmitype/StillImage" />
        <dc:title />
      </cc:Work>
    </rdf:RDF>
  </metadata>
  <g
     inkscape:label="Layer 1"
     inkscape:groupmode="layer"
     id="layer1"
     transform="translate(-416.40973,-63.12185)">
    <text
       xml:space="preserve"
       style="font-style:normal;font-weight:normal;font-size:60px;line-height:125%;font-family:sans-serif;text-align:center;letter-spacing:0px;word-spacing:0px;text-anchor:middle;fill:none;fill-opacity:1;stroke:#000000;stroke-width:0.35433072;stroke-linecap:butt;stroke-linejoin:miter;stroke-miterlimit:4;stroke-dasharray:none;stroke-opacity:1;"
       x="648.12781"
       y="712.07654"
       id="text3336"
       sodipodi:linespacing="125%"><tspan
         sodipodi:role="line"
         x="648.12781"
         y="712.07654"
         id="tspan3342"
         style="font-style:normal;font-variant:normal;font-weight:600;font-stretch:normal;font-size:80px;font-family:'Goth Stencil';-inkscape-font-specification:'Goth Stencil Semi-Bold';fill:none;fill-opacity:1;stroke:#000000;stroke-width:0.35433072;stroke-miterlimit:4;stroke-dasharray:none;stroke-opacity:1;">Andy's Box</tspan></text>
    <path
       inkscape:connector-curvature="0"
       d="m 711.45179,575.77158 0,0 51.05914,28.67086 c 12.09261,11.3721 9.06986,19.11391 17.46756,26.13123 8.28553,8.22655 13.54831,9.55696 18.4746,1.81515 3.91925,-8.8316 3.13572,-17.66319 4.3679,-27.22015 5.70982,-5.92754 10.4134,-8.9519 15.11617,-14.87945 5.15062,-6.16991 4.92548,-12.33982 -3.02436,-16.69459 -6.60632,-2.90318 -12.87615,-4.35564 -20.82599,-1.81514 -5.03927,1.69396 -10.4134,2.66169 -17.13107,-0.36268 L 721.86519,543.83399 565.25026,485.17494 c -21.06081,-11.12101 -38.55822,-19.41904 -59.38179,-31.82251 -11.322,-9.75224 -7.67953,-20.78781 -21.37688,-29.76936 -6.01734,-3.25017 -10.37192,-4.70437 -15.20162,4.1063 -3.08787,7.87084 -2.85031,16.25345 -3.32535,24.38061 -5.3839,6.24401 -11.4804,9.92312 -15.91422,17.70765 -6.41322,11.12101 3.32526,14.79924 8.55084,16.16801 14.88483,4.01998 20.26865,-3.25104 33.96584,-0.25719 26.68267,13.43047 53.60177,27.37358 79.33387,41.06037 z"
       style="fill:none;stroke:#000000;stroke-width:0.35433071;stroke-linejoin:round;stroke-miterlimit:4;stroke-dasharray:none"
       id="path3681" />
    <path
       inkscape:connector-curvature="0"
       d="m 722.87304,525.68694 0,0 76.25222,-38.83286 c 14.444,-6.16991 16.45971,2.5405 29.22449,0 9.74123,-0.12119 17.80324,-4.23359 17.13188,-14.15322 -4.9271,-7.86474 -9.51852,-12.82456 -18.13973,-21.41378 0.44784,-9.19428 -1.12002,-18.02587 -4.36709,-26.85659 -3.35924,-5.20219 -9.40555,-7.50119 -18.47461,1.81427 -9.18202,7.50031 -6.27144,17.542 -17.80404,27.9455 -18.81109,10.04081 -35.94216,18.99359 -56.76896,30.12332 l -158.55075,59.15773 c -18.36325,10.52468 -35.04647,20.32313 -56.09679,29.03354 -17.13187,4.59714 -16.4597,-6.77408 -37.28642,0.72623 -5.93446,5.081 -5.82246,12.33895 -1.00769,17.78263 5.59863,5.92842 9.51771,9.67901 14.44457,14.88119 1.56786,7.50032 1.79138,13.91173 2.68707,22.86363 3.35923,11.00942 10.74908,10.40437 17.13106,5.08188 2.79924,-3.7506 6.27064,-7.13764 8.3977,-11.25091 2.91139,-5.44368 6.15847,-11.6136 10.07772,-16.6946 l 50.72265,-29.03441 z"
       style="fill:none;stroke:#000000;stroke-width:0.35433071;stroke-linejoin:round;stroke-miterlimit:4;stroke-dasharray:none"
       id="path3683" />
    <path
       inkscape:connector-curvature="0"
       d="m 544.49447,297.50745 c -15.44136,-16.21858 -26.23321,-44.36547 -27.73087,-74.7608 -1.62595,-33.49555 14.70061,-66.75578 39.16584,-85.71721 27.41052,-20.84483 73.24157,-26.60986 101.73902,-25.05409 19.30251,0.0145 62.29964,10.82825 77.47714,23.04035 26.62376,20.91518 40.90154,50.60076 41.89083,84.43632 1.46296,33.98638 -11.78598,59.87263 -28.00926,76.02843"
       style="fill:none;stroke:#000000;stroke-width:0.35433071;stroke-miterlimit:4;stroke-dasharray:none"
       id="path3685" />
    <path
       inkscape:connector-curvature="0"
       d="m 545.43374,202.22213 c -6.25531,5.91272 -5.46613,14.80098 -4.33966,28.06581 0.88923,10.0783 6.84113,19.99881 7.15422,29.20616 2.18839,19.42864 -3.12765,38.85727 -5.62993,54.73845 -1.72037,18.24557 3.12845,33.95761 9.38295,40.03947 6.25449,5.99816 14.3278,8.48199 22.81022,11.27793 7.70697,2.17783 11.70368,5.96504 17.53292,10.66069 6.94442,7.96587 8.60104,14.55426 8.4445,22.66398"
       style="fill:none;stroke:#000000;stroke-width:0.35433071;stroke-miterlimit:4;stroke-dasharray:none"
       id="path3689" />
    <path
       inkscape:connector-curvature="0"
       d="m 749.10125,201.71526 c 6.2553,5.91272 5.46612,14.80098 4.33965,28.06581 -0.88923,10.0783 -6.84113,19.99881 -7.15422,29.20616 -2.18838,19.42864 3.12766,38.85727 5.62994,54.73845 1.72037,18.24557 -3.12846,33.95761 -9.38295,40.03947 -6.2545,5.99816 -17.70157,9.21955 -22.81023,11.27793 -5.9527,2.25019 -12.03936,6.32771 -17.53292,11.02337 -6.60873,6.87696 -8.60104,14.19158 -8.44449,22.3013"
       style="fill:none;stroke:#000000;stroke-width:0.35433071;stroke-miterlimit:4;stroke-dasharray:none"
       id="path3691" />
    <path
       inkscape:connector-curvature="0"
       d="m 563.31444,361.24136 c 5.59846,14.63795 11.53261,28.91323 12.09261,43.91386 -2.5749,12.09745 -1.79137,26.37273 1.00786,37.74482 3.58356,15.60568 17.57972,34.11454 31.57668,40.28445 14.33184,5.62502 23.28954,7.07749 39.30059,7.07749"
       style="fill:none;stroke:#000000;stroke-width:0.35433072;stroke-miterlimit:4;stroke-dasharray:none;stroke-opacity:1"
       id="path3693" />
    <path
       inkscape:connector-curvature="0"
       d="m 730.43056,361.24133 c -5.59846,14.63796 -11.53261,28.91323 -12.09261,43.91386 2.5749,12.09746 1.79138,26.37273 -1.00786,37.74483 -3.58356,15.60568 -17.74756,33.57052 -31.74452,39.74043 -13.99616,6.16991 -22.95305,7.6215 -38.96491,7.6215"
       style="fill:none;stroke:#000000;stroke-width:0.35433072;stroke-miterlimit:4;stroke-dasharray:none;stroke-opacity:1"
       id="path3695" />
    <path
       inkscape:connector-curvature="0"
       d="m 648.06689,318.56204 c -7.82396,6.42797 -9.56451,8.58661 -13.88802,15.69983 -1.56464,2.74538 -4.48652,9.16115 -5.28538,13.46535 -0.79805,4.30333 -1.39598,10.54735 -1.39356,13.85418 0.01,11.20558 3.31082,18.23511 6.91617,17.99013 3.22126,-0.3993 7.32045,-4.02871 13.53218,-12.27182"
       style="fill:none;stroke:#000000;stroke-width:0.35433072;stroke-miterlimit:4;stroke-dasharray:none;stroke-opacity:1"
       id="path3697" />
    <path
       inkscape:connector-curvature="0"
       d="m 647.70086,318.74346 c 7.82397,6.42797 9.56451,8.58661 13.88803,15.69984 1.56463,2.74538 4.48652,9.16114 5.28537,13.46535 0.79806,4.30333 1.39599,10.54735 1.39357,13.85418 -0.01,11.20558 -3.31083,18.23511 -6.91618,17.99012 -3.22125,-0.39929 -7.32044,-4.0287 -13.53217,-12.27181"
       style="fill:none;stroke:#000000;stroke-width:0.35433072;stroke-miterlimit:4;stroke-dasharray:none;stroke-opacity:1"
       id="path3699" />
    <path
       inkscape:connector-curvature="0"
       d="m 577.56132,269.609 c 10.86125,-2.05664 21.386,-3.38705 32.24724,-4.71745 14.22049,-3.87178 21.38681,13.67022 17.46756,26.85659 -4.92629,11.73477 -11.86829,22.01796 -19.81813,31.93759 -6.15847,7.50032 -13.49506,8.7139 -20.49112,6.16904 -5.64688,-1.69134 -10.86205,-5.44281 -16.46051,-14.15322 -2.46274,-7.50119 -4.58981,-11.37297 -7.72553,-20.68755 -2.46274,-8.58923 1.36775,-21.44692 14.78049,-25.405 z"
       style="fill:none;stroke:#000000;stroke-width:0.83874912pt"
       id="path3701" />
    <path
       inkscape:connector-curvature="0"
       d="m 716.41907,269.609 c -10.86124,-2.05664 -21.38599,-3.38705 -32.24724,-4.71745 -14.22048,-3.87178 -21.3868,13.67022 -17.46756,26.85659 4.9263,11.73477 11.86829,22.01796 19.81814,31.93759 6.15847,7.50032 13.49506,8.7139 20.49112,6.16904 5.64688,-1.69134 10.86205,-5.44281 16.46051,-14.15322 2.46274,-7.50119 4.5898,-11.37297 7.72552,-20.68755 2.46275,-8.58923 -1.36774,-21.44692 -14.78049,-25.405 z"
       style="fill:none;stroke:#000000;stroke-width:0.83874912pt"
       id="path3703" />
    <path
       inkscape:connector-curvature="0"
       d="m 577.36509,366.05689 c 4.59066,11.9791 6.01061,16.53142 9.32089,28.47373 2.82055,11.03202 3.85728,17.76937 5.59996,33.44706"
       style="fill:none;stroke:#000000;stroke-width:0.35952353;stroke-miterlimit:4;stroke-dasharray:none;stroke-opacity:1"
       id="path3705" />
    <path
       inkscape:connector-curvature="0"
       d="m 716.0378,367.20038 c -4.59142,11.63365 -6.01161,16.05468 -9.32243,27.65257 -2.82102,10.71387 -3.85792,17.25692 -5.60089,32.48248"
       style="fill:none;stroke:#000000;stroke-width:0.35433072;stroke-miterlimit:4;stroke-dasharray:none;stroke-opacity:1"
       id="path3707" />
    <path
       inkscape:connector-curvature="0"
       d="m 600.17128,399.04106 c 11.11611,7.8768 30.33249,9.09143 47.54893,8.73367 19.1794,-0.11256 35.59826,-1.71287 46.38054,-9.24676"
       style="fill:none;stroke:#000000;stroke-width:0.34295079;stroke-miterlimit:4;stroke-dasharray:none;stroke-opacity:1"
       id="path3709" />
    <path
       inkscape:connector-curvature="0"
       d="m 601.11576,417.57615 c 13.10289,8.89611 28.51198,11.95099 46.25792,11.22738 18.43184,-0.48474 32.56033,-2.16039 45.18875,-11.48369"
       style="fill:none;stroke:#000000;stroke-width:0.35433071;stroke-miterlimit:4;stroke-dasharray:none;stroke-opacity:1"
       id="path3711" />
    <path
       inkscape:connector-curvature="0"
       d="m 591.615,426.35366 c 14.01391,18.26301 33.57463,21.43384 55.81759,22.07027 23.81969,0.93896 47.74267,-9.28058 53.91808,-22.0694"
       style="fill:none;stroke:#000000;stroke-width:0.35433072;stroke-miterlimit:4;stroke-dasharray:none;stroke-opacity:1"
       id="path3713" />
    <path
       inkscape:connector-curvature="0"
       d="m 600.93582,400.9888 -0.33568,35.92968"
       style="fill:none;stroke:#000000;stroke-width:0.35433071;stroke-miterlimit:4;stroke-dasharray:none;stroke-opacity:1"
       id="path3715" />
    <path
       inkscape:connector-curvature="0"
       d="m 611.85274,404.79955 -0.16784,38.47018"
       style="fill:none;stroke:#000000;stroke-width:0.35433071;stroke-miterlimit:4;stroke-dasharray:none;stroke-opacity:1"
       id="path3717" />
    <path
       inkscape:connector-curvature="0"
       d="m 623.94535,406.43248 -0.33568,40.28532"
       style="fill:none;stroke:#000000;stroke-width:0.35433071;stroke-miterlimit:4;stroke-dasharray:none;stroke-opacity:1"
       id="path3719" />
    <path
       inkscape:connector-curvature="0"
       d="m 634.86308,407.34005 -0.16865,40.82934"
       style="fill:none;stroke:#000000;stroke-width:0.35433071;stroke-miterlimit:4;stroke-dasharray:none;stroke-opacity:1"
       id="path3721" />
    <path
       inkscape:connector-curvature="0"
       d="m 647.12354,407.70273 0,40.82934"
       style="fill:none;stroke:#000000;stroke-width:0.35433071;stroke-miterlimit:4;stroke-dasharray:none;stroke-opacity:1"
       id="path3723" />
    <path
       inkscape:connector-curvature="0"
       d="m 658.88047,407.52139 0.16784,40.82934"
       style="fill:none;stroke:#000000;stroke-width:0.35433071;stroke-miterlimit:4;stroke-dasharray:none;stroke-opacity:1"
       id="path3725" />
    <path
       inkscape:connector-curvature="0"
       d="m 669.4615,406.43245 0.33568,40.10398"
       style="fill:none;stroke:#000000;stroke-width:0.35433071;stroke-miterlimit:4;stroke-dasharray:none;stroke-opacity:1"
       id="path3727" />
    <path
       inkscape:connector-curvature="0"
       d="M 681.72216,404.25553 681.89,442.72571"
       style="fill:none;stroke:#000000;stroke-width:0.35433071;stroke-miterlimit:4;stroke-dasharray:none;stroke-opacity:1"
       id="path3729" />
    <path
       inkscape:connector-curvature="0"
       d="m 692.80692,399.53721 0.33649,36.29236"
       style="fill:none;stroke:#000000;stroke-width:0.35433071;stroke-miterlimit:4;stroke-dasharray:none;stroke-opacity:1"
       id="path3731" />
    <g
       id="g3341"
       transform="matrix(0.32904037,0,0,0.36197868,333.90131,61.726052)"
       style="fill:none;stroke:#000000;stroke-opacity:1;stroke-width:1.02669798;stroke-miterlimit:4;stroke-dasharray:none">
      <use
         transform="matrix(0.73789088,0,0,0.68573137,758.86271,193.89891)"
         id="use3411"
         xlink:href="#p"
         x="0"
         y="0"
         width="100%"
         height="100%"
         style="fill:none;stroke:#000000;stroke-opacity:1;stroke-width:1.44334325;stroke-miterlimit:4;stroke-dasharray:none" />
      <use
         id="use3413"
         transform="matrix(-0.36894544,0.59386078,-0.63903224,-0.34286569,1212.7885,306.93034)"
         xlink:href="#p"
         x="0"
         y="0"
         width="100%"
         height="100%"
         style="fill:none;stroke:#000000;stroke-opacity:1;stroke-width:1.44334326;stroke-miterlimit:4;stroke-dasharray:none" />
      <use
         inkscape:transform-center-y="-8.5714284"
         inkscape:transform-center-x="160"
         id="use3415"
         transform="matrix(-0.36894544,-0.59386078,0.63903224,-0.34286569,880.49177,615.73795)"
         xlink:href="#p"
         x="0"
         y="0"
         width="100%"
         height="100%"
         style="fill:none;stroke:#000000;stroke-opacity:1;stroke-width:1.44334326;stroke-miterlimit:4;stroke-dasharray:none" />
    </g>
  </g>
</svg>
